<?xml version="1.0" encoding="UTF-8" standalone="no"?>
<graphml xmlns="http://graphml.graphdrawing.org/xmlns" xmlns:java="http://www.yworks.com/xml/yfiles-common/1.0/java" xmlns:sys="http://www.yworks.com/xml/yfiles-common/markup/primitives/2.0" xmlns:x="http://www.yworks.com/xml/yfiles-common/markup/2.0" xmlns:xsi="http://www.w3.org/2001/XMLSchema-instance" xmlns:y="http://www.yworks.com/xml/graphml" xmlns:yed="http://www.yworks.com/xml/yed/3" xsi:schemaLocation="http://graphml.graphdrawing.org/xmlns http://www.yworks.com/xml/schema/graphml/1.1/ygraphml.xsd">
  <!--Created by yEd 3.23.2-->
  <key attr.name="Description" attr.type="string" for="graph" id="d0"/>
  <key for="port" id="d1" yfiles.type="portgraphics"/>
  <key for="port" id="d2" yfiles.type="portgeometry"/>
  <key for="port" id="d3" yfiles.type="portuserdata"/>
  <key attr.name="url" attr.type="string" for="node" id="d4"/>
  <key attr.name="description" attr.type="string" for="node" id="d5"/>
  <key for="node" id="d6" yfiles.type="nodegraphics"/>
  <key for="graphml" id="d7" yfiles.type="resources"/>
  <key attr.name="url" attr.type="string" for="edge" id="d8"/>
  <key attr.name="description" attr.type="string" for="edge" id="d9"/>
  <key for="edge" id="d10" yfiles.type="edgegraphics"/>
  <graph edgedefault="directed" id="G">
    <data key="d0" xml:space="preserve"/>
    <node id="n0">
      <data key="d6">
        <y:ShapeNode>
          <y:Geometry height="30.0" width="30.0" x="15.0" y="75.0"/>
          <y:Fill color="#8FB349" transparent="false"/>
          <y:BorderStyle hasColor="false" raised="false" type="line" width="1.0"/>
          <y:NodeLabel alignment="center" autoSizePolicy="content" fontFamily="Fira Sans Light" fontSize="24" fontStyle="bold" hasBackgroundColor="false" hasLineColor="false" height="32.7999153137207" horizontalTextPosition="center" iconTextGap="4" modelName="internal" modelPosition="c" textColor="#FFFFFF" verticalTextPosition="bottom" visible="true" width="17.0379638671875" x="6.48101806640625" xml:space="preserve" y="-1.3999576568603516">E</y:NodeLabel>
          <y:Shape type="ellipse"/>
        </y:ShapeNode>
      </data>
    </node>
    <node id="n1">
      <data key="d6">
        <y:ShapeNode>
          <y:Geometry height="30.0" width="30.0" x="-15.0" y="135.0"/>
          <y:Fill color="#8FB349" transparent="false"/>
          <y:BorderStyle hasColor="false" raised="false" type="line" width="1.0"/>
          <y:NodeLabel alignment="center" autoSizePolicy="content" fontFamily="Fira Sans Light" fontSize="24" fontStyle="bold" hasBackgroundColor="false" hasLineColor="false" height="32.7999153137207" horizontalTextPosition="center" iconTextGap="4" modelName="internal" modelPosition="c" textColor="#FFFFFF" verticalTextPosition="bottom" visible="true" width="18.909957885742188" x="5.545021057128906" xml:space="preserve" y="-1.3999576568603516">R</y:NodeLabel>
          <y:Shape type="ellipse"/>
        </y:ShapeNode>
      </data>
    </node>
    <node id="n2">
      <data key="d6">
        <y:ShapeNode>
          <y:Geometry height="30.0" width="30.0" x="75.0" y="75.0"/>
          <y:Fill color="#8FB349" transparent="false"/>
          <y:BorderStyle hasColor="false" raised="false" type="line" width="1.0"/>
          <y:NodeLabel alignment="center" autoSizePolicy="content" fontFamily="Fira Sans Light" fontSize="24" fontStyle="bold" hasBackgroundColor="false" hasLineColor="false" height="32.7999153137207" horizontalTextPosition="center" iconTextGap="4" modelName="internal" modelPosition="c" textColor="#FFFFFF" verticalTextPosition="bottom" visible="true" width="17.133956909179688" x="6.433021545410156" xml:space="preserve" y="-1.3999576568603516">Z</y:NodeLabel>
          <y:Shape type="ellipse"/>
        </y:ShapeNode>
      </data>
    </node>
    <node id="n3">
      <data key="d6">
        <y:ShapeNode>
          <y:Geometry height="30.0" width="30.0" x="45.0" y="135.0"/>
          <y:Fill color="#8FB349" transparent="false"/>
          <y:BorderStyle hasColor="false" raised="false" type="line" width="1.0"/>
          <y:NodeLabel alignment="center" autoSizePolicy="content" fontFamily="Fira Sans Light" fontSize="24" fontStyle="bold" hasBackgroundColor="false" hasLineColor="false" height="32.7999153137207" horizontalTextPosition="center" iconTextGap="4" modelName="internal" modelPosition="c" textColor="#FFFFFF" verticalTextPosition="bottom" visible="true" width="16.629959106445312" x="6.685020446777344" xml:space="preserve" y="-1.3999576568603516">T</y:NodeLabel>
          <y:Shape type="ellipse"/>
        </y:ShapeNode>
      </data>
    </node>
    <node id="n4">
      <data key="d6">
        <y:ShapeNode>
          <y:Geometry height="30.0" width="30.0" x="-45.0" y="75.0"/>
          <y:Fill color="#8FB349" transparent="false"/>
          <y:BorderStyle hasColor="false" raised="false" type="line" width="1.0"/>
          <y:NodeLabel alignment="center" autoSizePolicy="content" fontFamily="Fira Sans Light" fontSize="24" fontStyle="bold" hasBackgroundColor="false" hasLineColor="false" height="32.7999153137207" horizontalTextPosition="center" iconTextGap="4" modelName="internal" modelPosition="c" textColor="#FFFFFF" verticalTextPosition="bottom" visible="true" width="18.309967041015625" x="5.8450164794921875" xml:space="preserve" y="-1.3999576568603516">A</y:NodeLabel>
          <y:Shape type="ellipse"/>
        </y:ShapeNode>
      </data>
    </node>
    <node id="n5">
      <data key="d6">
        <y:ShapeNode>
          <y:Geometry height="30.0" width="30.0" x="105.0" y="135.0"/>
          <y:Fill color="#8FB349" transparent="false"/>
          <y:BorderStyle hasColor="false" raised="false" type="line" width="1.0"/>
          <y:NodeLabel alignment="center" autoSizePolicy="content" fontFamily="Fira Sans Light" fontSize="24" fontStyle="bold" hasBackgroundColor="false" hasLineColor="false" height="32.7999153137207" horizontalTextPosition="center" iconTextGap="4" modelName="internal" modelPosition="c" textColor="#FFFFFF" verticalTextPosition="bottom" visible="true" width="17.301956176757812" x="6.349021911621094" xml:space="preserve" y="-1.3999576568603516">Y</y:NodeLabel>
          <y:Shape type="ellipse"/>
        </y:ShapeNode>
      </data>
    </node>
    <node id="n6">
      <data key="d6">
        <y:ShapeNode>
          <y:Geometry height="30.0" width="30.0" x="75.0" y="195.0"/>
          <y:Fill color="#8FB349" transparent="false"/>
          <y:BorderStyle hasColor="false" raised="false" type="line" width="1.0"/>
          <y:NodeLabel alignment="center" autoSizePolicy="content" fontFamily="Fira Sans Light" fontSize="24" fontStyle="bold" hasBackgroundColor="false" hasLineColor="false" height="32.7999153137207" horizontalTextPosition="center" iconTextGap="4" modelName="internal" modelPosition="c" textColor="#FFFFFF" verticalTextPosition="bottom" visible="true" width="21.309951782226562" x="4.345024108886719" xml:space="preserve" y="-1.3999576568603516">Q</y:NodeLabel>
          <y:Shape type="ellipse"/>
        </y:ShapeNode>
      </data>
    </node>
    <node id="n7">
      <data key="d6">
        <y:ShapeNode>
          <y:Geometry height="30.0" width="30.0" x="135.0" y="195.0"/>
          <y:Fill color="#8FB349" transparent="false"/>
          <y:BorderStyle hasColor="false" raised="false" type="line" width="1.0"/>
          <y:NodeLabel alignment="center" autoSizePolicy="content" fontFamily="Fira Sans Light" fontSize="24" fontStyle="bold" hasBackgroundColor="false" hasLineColor="false" height="32.7999153137207" horizontalTextPosition="center" iconTextGap="4" modelName="internal" modelPosition="c" textColor="#FFFFFF" verticalTextPosition="bottom" visible="true" width="11.517974853515625" x="9.241012573242188" xml:space="preserve" y="-1.3999576568603516">I</y:NodeLabel>
          <y:Shape type="ellipse"/>
        </y:ShapeNode>
      </data>
    </node>
    <node id="n8">
      <data key="d6">
        <y:ShapeNode>
          <y:Geometry height="30.0" width="30.0" x="195.0" y="195.0"/>
          <y:Fill color="#8FB349" transparent="false"/>
          <y:BorderStyle hasColor="false" raised="false" type="line" width="1.0"/>
          <y:NodeLabel alignment="center" autoSizePolicy="content" fontFamily="Fira Sans Light" fontSize="24" fontStyle="bold" hasBackgroundColor="false" hasLineColor="false" height="32.7999153137207" horizontalTextPosition="center" iconTextGap="4" modelName="internal" modelPosition="c" textColor="#FFFFFF" verticalTextPosition="bottom" visible="true" width="21.333953857421875" x="4.3330230712890625" xml:space="preserve" y="-1.3999576568603516">O</y:NodeLabel>
          <y:Shape type="ellipse"/>
        </y:ShapeNode>
      </data>
    </node>
    <node id="n9">
      <data key="d6">
        <y:ShapeNode>
          <y:Geometry height="30.0" width="30.0" x="165.0" y="135.0"/>
          <y:Fill color="#8FB349" transparent="false"/>
          <y:BorderStyle hasColor="false" raised="false" type="line" width="1.0"/>
          <y:NodeLabel alignment="center" autoSizePolicy="content" fontFamily="Fira Sans Light" fontSize="24" fontStyle="bold" hasBackgroundColor="false" hasLineColor="false" height="32.7999153137207" horizontalTextPosition="center" iconTextGap="4" modelName="internal" modelPosition="c" textColor="#FFFFFF" verticalTextPosition="bottom" visible="true" width="18.429962158203125" x="5.7850189208984375" xml:space="preserve" y="-1.3999576568603516">P</y:NodeLabel>
          <y:Shape type="ellipse"/>
        </y:ShapeNode>
      </data>
    </node>
    <node id="n10">
      <data key="d6">
        <y:ShapeNode>
          <y:Geometry height="30.0" width="30.0" x="135.0" y="75.0"/>
          <y:Fill color="#8FB349" transparent="false"/>
          <y:BorderStyle hasColor="false" raised="false" type="line" width="1.0"/>
          <y:NodeLabel alignment="center" autoSizePolicy="content" fontFamily="Fira Sans Light" fontSize="24" fontStyle="bold" hasBackgroundColor="false" hasLineColor="false" height="32.7999153137207" horizontalTextPosition="center" iconTextGap="4" modelName="internal" modelPosition="c" textColor="#FFFFFF" verticalTextPosition="bottom" visible="true" width="20.39794921875" x="4.801025390625" xml:space="preserve" y="-1.3999576568603516">U</y:NodeLabel>
          <y:Shape type="ellipse"/>
        </y:ShapeNode>
      </data>
    </node>
    <edge id="e0" source="n9" target="n8">
      <data key="d10">
        <y:PolyLineEdge>
          <y:Path sx="0.0" sy="0.0" tx="0.0" ty="0.0"/>
          <y:LineStyle color="#000000" type="line" width="1.0"/>
          <y:Arrows source="none" target="none"/>
          <y:BendStyle smoothed="false"/>
        </y:PolyLineEdge>
      </data>
    </edge>
    <edge id="e1" source="n10" target="n5">
      <data key="d10">
        <y:PolyLineEdge>
          <y:Path sx="0.0" sy="0.0" tx="0.0" ty="0.0"/>
          <y:LineStyle color="#000000" type="line" width="1.0"/>
          <y:Arrows source="none" target="none"/>
          <y:BendStyle smoothed="false"/>
        </y:PolyLineEdge>
      </data>
    </edge>
    <edge id="e2" source="n9" target="n5">
      <data key="d10">
        <y:PolyLineEdge>
          <y:Path sx="0.0" sy="0.0" tx="0.0" ty="0.0"/>
          <y:LineStyle color="#000000" type="line" width="1.0"/>
          <y:Arrows source="none" target="none"/>
          <y:BendStyle smoothed="false"/>
        </y:PolyLineEdge>
      </data>
    </edge>
    <edge id="e3" source="n5" target="n3">
      <data key="d10">
        <y:PolyLineEdge>
          <y:Path sx="-15.0" sy="-0.0" tx="15.0" ty="-0.0"/>
          <y:LineStyle color="#000000" type="line" width="1.0"/>
          <y:Arrows source="none" target="none"/>
          <y:BendStyle smoothed="false"/>
        </y:PolyLineEdge>
      </data>
    </edge>
    <edge id="e4" source="n3" target="n6">
      <data key="d10">
        <y:PolyLineEdge>
          <y:Path sx="0.0" sy="0.0" tx="0.0" ty="0.0"/>
          <y:LineStyle color="#000000" type="line" width="1.0"/>
          <y:Arrows source="none" target="none"/>
          <y:BendStyle smoothed="false"/>
        </y:PolyLineEdge>
      </data>
    </edge>
    <edge id="e5" source="n6" target="n7">
      <data key="d10">
        <y:PolyLineEdge>
          <y:Path sx="15.0" sy="-0.0" tx="-15.0" ty="-0.0"/>
          <y:LineStyle color="#000000" type="line" width="1.0"/>
          <y:Arrows source="none" target="none"/>
          <y:BendStyle smoothed="false"/>
        </y:PolyLineEdge>
      </data>
    </edge>
    <edge id="e6" source="n7" target="n8">
      <data key="d10">
        <y:PolyLineEdge>
          <y:Path sx="15.0" sy="-0.0" tx="-15.0" ty="-0.0"/>
          <y:LineStyle color="#000000" type="line" width="1.0"/>
          <y:Arrows source="none" target="none"/>
          <y:BendStyle smoothed="false"/>
        </y:PolyLineEdge>
      </data>
    </edge>
    <edge id="e7" source="n7" target="n5">
      <data key="d10">
        <y:PolyLineEdge>
          <y:Path sx="0.0" sy="0.0" tx="0.0" ty="0.0"/>
          <y:LineStyle color="#000000" type="line" width="1.0"/>
          <y:Arrows source="none" target="none"/>
          <y:BendStyle smoothed="false"/>
        </y:PolyLineEdge>
      </data>
    </edge>
    <edge id="e8" source="n3" target="n2">
      <data key="d10">
        <y:PolyLineEdge>
          <y:Path sx="0.0" sy="0.0" tx="0.0" ty="0.0"/>
          <y:LineStyle color="#000000" type="line" width="1.0"/>
          <y:Arrows source="none" target="none"/>
          <y:BendStyle smoothed="false"/>
        </y:PolyLineEdge>
      </data>
    </edge>
    <edge id="e9" source="n2" target="n0">
      <data key="d10">
        <y:PolyLineEdge>
          <y:Path sx="-15.0" sy="-0.0" tx="15.0" ty="-0.0"/>
          <y:LineStyle color="#000000" type="line" width="1.0"/>
          <y:Arrows source="none" target="none"/>
          <y:BendStyle smoothed="false"/>
        </y:PolyLineEdge>
      </data>
    </edge>
    <edge id="e10" source="n0" target="n4">
      <data key="d10">
        <y:PolyLineEdge>
          <y:Path sx="0.0" sy="0.0" tx="0.0" ty="0.0"/>
          <y:LineStyle color="#000000" type="line" width="1.0"/>
          <y:Arrows source="none" target="none"/>
          <y:BendStyle smoothed="false"/>
        </y:PolyLineEdge>
      </data>
    </edge>
    <edge id="e11" source="n3" target="n1">
      <data key="d10">
        <y:PolyLineEdge>
          <y:Path sx="-15.0" sy="-0.0" tx="15.0" ty="-0.0"/>
          <y:LineStyle color="#000000" type="line" width="1.0"/>
          <y:Arrows source="none" target="none"/>
          <y:BendStyle smoothed="false"/>
        </y:PolyLineEdge>
      </data>
    </edge>
    <edge id="e12" source="n1" target="n0">
      <data key="d10">
        <y:PolyLineEdge>
          <y:Path sx="0.0" sy="0.0" tx="0.0" ty="0.0"/>
          <y:LineStyle color="#000000" type="line" width="1.0"/>
          <y:Arrows source="none" target="none"/>
          <y:BendStyle smoothed="false"/>
        </y:PolyLineEdge>
      </data>
    </edge>
  </graph>
  <data key="d7">
    <y:Resources/>
  </data>
</graphml>
