<?xml version="1.0" encoding="UTF-8" standalone="no"?>
<graphml xmlns="http://graphml.graphdrawing.org/xmlns" xmlns:java="http://www.yworks.com/xml/yfiles-common/1.0/java" xmlns:sys="http://www.yworks.com/xml/yfiles-common/markup/primitives/2.0" xmlns:x="http://www.yworks.com/xml/yfiles-common/markup/2.0" xmlns:xsi="http://www.w3.org/2001/XMLSchema-instance" xmlns:y="http://www.yworks.com/xml/graphml" xmlns:yed="http://www.yworks.com/xml/yed/3" xsi:schemaLocation="http://graphml.graphdrawing.org/xmlns http://www.yworks.com/xml/schema/graphml/1.1/ygraphml.xsd">
  <!--Created by yEd 3.23.2-->
  <key attr.name="Description" attr.type="string" for="graph" id="d0"/>
  <key for="port" id="d1" yfiles.type="portgraphics"/>
  <key for="port" id="d2" yfiles.type="portgeometry"/>
  <key for="port" id="d3" yfiles.type="portuserdata"/>
  <key attr.name="url" attr.type="string" for="node" id="d4"/>
  <key attr.name="description" attr.type="string" for="node" id="d5"/>
  <key for="node" id="d6" yfiles.type="nodegraphics"/>
  <key for="graphml" id="d7" yfiles.type="resources"/>
  <key attr.name="url" attr.type="string" for="edge" id="d8"/>
  <key attr.name="description" attr.type="string" for="edge" id="d9"/>
  <key for="edge" id="d10" yfiles.type="edgegraphics"/>
  <graph edgedefault="directed" id="G">
    <data key="d0" xml:space="preserve"/>
    <node id="n0">
      <data key="d6">
        <y:SVGNode>
          <y:Geometry height="69.94900512695312" width="56.554100036621094" x="514.1343994140625" y="656.0310668945312"/>
          <y:Fill color="#CCCCFF" transparent="false"/>
          <y:BorderStyle color="#000000" type="line" width="1.0"/>
          <y:NodeLabel alignment="center" autoSizePolicy="content" fontFamily="Fira Sans Light" fontSize="18" fontStyle="plain" hasBackgroundColor="false" hasLineColor="false" height="25.599864959716797" horizontalTextPosition="center" iconTextGap="4" modelName="custom" textColor="#000000" verticalTextPosition="bottom" visible="true" width="42.26776123046875" x="7.143169403076172" xml:space="preserve" y="73.94900512695312">Alice<y:LabelModel><y:SmartNodeLabelModel distance="4.0"/></y:LabelModel><y:ModelParameter><y:SmartNodeLabelModelParameter labelRatioX="0.0" labelRatioY="-0.5" nodeRatioX="0.0" nodeRatioY="0.5" offsetX="0.0" offsetY="4.0" upX="0.0" upY="-1.0"/></y:ModelParameter></y:NodeLabel>
          <y:SVGNodeProperties usingVisualBounds="true"/>
          <y:SVGModel svgBoundsPolicy="0">
            <y:SVGContent refid="1"/>
          </y:SVGModel>
        </y:SVGNode>
      </data>
    </node>
    <node id="n1">
      <data key="d6">
        <y:SVGNode>
          <y:Geometry height="64.53585815429688" width="56.558998107910156" x="1114.131950378418" y="668.7631378173828"/>
          <y:Fill color="#CCCCFF" transparent="false"/>
          <y:BorderStyle color="#000000" type="line" width="1.0"/>
          <y:NodeLabel alignment="center" autoSizePolicy="content" fontFamily="Fira Sans Light" fontSize="18" fontStyle="plain" hasBackgroundColor="false" hasLineColor="false" height="25.599864959716797" horizontalTextPosition="center" iconTextGap="4" modelName="custom" textColor="#000000" verticalTextPosition="bottom" visible="true" width="35.373809814453125" x="10.592594146728516" xml:space="preserve" y="68.53585815429688">Bob<y:LabelModel><y:SmartNodeLabelModel distance="4.0"/></y:LabelModel><y:ModelParameter><y:SmartNodeLabelModelParameter labelRatioX="0.0" labelRatioY="-0.5" nodeRatioX="0.0" nodeRatioY="0.5" offsetX="0.0" offsetY="4.0" upX="0.0" upY="-1.0"/></y:ModelParameter></y:NodeLabel>
          <y:SVGNodeProperties usingVisualBounds="true"/>
          <y:SVGModel svgBoundsPolicy="0">
            <y:SVGContent refid="2"/>
          </y:SVGModel>
        </y:SVGNode>
      </data>
    </node>
    <node id="n2">
      <data key="d6">
        <y:SVGNode>
          <y:Geometry height="60.0" width="60.0" x="1040.411449432373" y="671.0310668945312"/>
          <y:Fill color="#CCCCFF" transparent="false"/>
          <y:BorderStyle color="#000000" type="line" width="1.0"/>
          <y:NodeLabel alignment="center" autoSizePolicy="content" fontFamily="Fira Sans Light" fontSize="12" fontStyle="plain" hasBackgroundColor="false" hasLineColor="false" hasText="false" height="4.0" horizontalTextPosition="center" iconTextGap="4" modelName="custom" textColor="#000000" verticalTextPosition="bottom" visible="true" width="4.0" x="28.0" y="28.0">
            <y:LabelModel>
              <y:SmartNodeLabelModel distance="4.0"/>
            </y:LabelModel>
            <y:ModelParameter>
              <y:SmartNodeLabelModelParameter labelRatioX="0.0" labelRatioY="0.0" nodeRatioX="0.0" nodeRatioY="0.0" offsetX="0.0" offsetY="0.0" upX="0.0" upY="-1.0"/>
            </y:ModelParameter>
          </y:NodeLabel>
          <y:SVGNodeProperties usingVisualBounds="true"/>
          <y:SVGModel svgBoundsPolicy="0">
            <y:SVGContent refid="3"/>
          </y:SVGModel>
        </y:SVGNode>
      </data>
    </node>
    <node id="n3">
      <data key="d6">
        <y:GenericNode configuration="com.yworks.flowchart.paperType">
          <y:Geometry height="90.0" width="90.0" x="994.131950378418" y="756.3244934082031"/>
          <y:Fill color="#FFFAEB" transparent="false"/>
          <y:BorderStyle color="#000000" type="line" width="1.0"/>
          <y:NodeLabel alignment="center" autoSizePolicy="content" fontFamily="Fira Sans Light" fontSize="18" fontStyle="plain" hasBackgroundColor="false" hasLineColor="false" height="47.199729919433594" horizontalTextPosition="center" iconTextGap="4" modelName="custom" textColor="#000000" verticalTextPosition="bottom" visible="true" width="85.64749145507812" x="2.1762542724609375" xml:space="preserve" y="21.400135040283203">a-"'jkh^DS
suiZu_ç£<y:LabelModel><y:SmartNodeLabelModel distance="4.0"/></y:LabelModel><y:ModelParameter><y:SmartNodeLabelModelParameter labelRatioX="0.0" labelRatioY="0.0" nodeRatioX="0.0" nodeRatioY="0.0" offsetX="0.0" offsetY="0.0" upX="0.0" upY="-1.0"/></y:ModelParameter></y:NodeLabel>
        </y:GenericNode>
      </data>
    </node>
    <node id="n4">
      <data key="d6">
        <y:GenericNode configuration="com.yworks.flowchart.paperType">
          <y:Geometry height="90.0" width="90.0" x="985.131950378418" y="546.3244934082031"/>
          <y:Fill color="#EBF8FF" transparent="false"/>
          <y:BorderStyle color="#000000" type="line" width="1.0"/>
          <y:NodeLabel alignment="center" autoSizePolicy="content" fontFamily="Fira Sans Light" fontSize="18" fontStyle="plain" hasBackgroundColor="false" hasLineColor="false" height="47.199729919433594" horizontalTextPosition="center" iconTextGap="4" modelName="custom" textColor="#000000" verticalTextPosition="bottom" visible="true" width="72.2735595703125" x="8.86322021484375" xml:space="preserve" y="21.400135040283203">Message
en clair<y:LabelModel><y:SmartNodeLabelModel distance="4.0"/></y:LabelModel><y:ModelParameter><y:SmartNodeLabelModelParameter labelRatioX="0.0" labelRatioY="0.0" nodeRatioX="0.0" nodeRatioY="0.0" offsetX="0.0" offsetY="0.0" upX="0.0" upY="-1.0"/></y:ModelParameter></y:NodeLabel>
        </y:GenericNode>
      </data>
    </node>
    <node id="n5">
      <data key="d6">
        <y:ShapeNode>
          <y:Geometry height="329.0" width="716.0" x="512.0" y="526.5055694580078"/>
          <y:Fill hasColor="false" transparent="false"/>
          <y:BorderStyle hasColor="false" raised="false" type="line" width="1.0"/>
          <y:NodeLabel alignment="center" autoSizePolicy="content" fontFamily="Fira Sans Light" fontSize="12" fontStyle="plain" hasBackgroundColor="false" hasLineColor="false" hasText="false" height="4.0" horizontalTextPosition="center" iconTextGap="4" modelName="custom" textColor="#000000" verticalTextPosition="bottom" visible="true" width="4.0" x="356.0" y="162.5">
            <y:LabelModel>
              <y:SmartNodeLabelModel distance="4.0"/>
            </y:LabelModel>
            <y:ModelParameter>
              <y:SmartNodeLabelModelParameter labelRatioX="0.0" labelRatioY="0.0" nodeRatioX="0.0" nodeRatioY="0.0" offsetX="0.0" offsetY="0.0" upX="0.0" upY="-1.0"/>
            </y:ModelParameter>
          </y:NodeLabel>
          <y:Shape type="rectangle"/>
        </y:ShapeNode>
      </data>
    </node>
    <edge id="e0" source="n4" target="n3">
      <data key="d10">
        <y:ArcEdge>
          <y:Path sx="0.0" sy="0.0" tx="0.0" ty="0.0">
            <y:Point x="993.3319702148438" y="698.094482421875"/>
          </y:Path>
          <y:LineStyle color="#C0C0C0" type="line" width="7.0"/>
          <y:Arrows source="delta" target="none"/>
          <y:Arc height="-41.337913513183594" ratio="-0.7866666913032532" type="fixedRatio"/>
        </y:ArcEdge>
      </data>
    </edge>
  </graph>
  <data key="d7">
    <y:Resources>
      <y:Resource id="1" xml:space="preserve">&lt;?xml version="1.0" encoding="utf-8"?&gt;
&lt;svg version="1.1" id="Ebene_1" xmlns="http://www.w3.org/2000/svg" xmlns:xlink="http://www.w3.org/1999/xlink" x="0px" y="0px"
	 width="57px" height="65px" viewBox="0 0 57 65" enable-background="new 0 0 57 65" xml:space="preserve"&gt;
&lt;g&gt;
	
		&lt;linearGradient id="SVGID_1_" gradientUnits="userSpaceOnUse" x1="26.5396" y1="-732.5005" x2="27.7805" y2="-762.2984" gradientTransform="matrix(1 0 0 -1 0.1201 -708.5371)"&gt;
		&lt;stop  offset="0.2711" style="stop-color:#FFAB4F"/&gt;
		&lt;stop  offset="1" style="stop-color:#FFD28F"/&gt;
	&lt;/linearGradient&gt;
	&lt;path fill="url(#SVGID_1_)" stroke="#ED9135" stroke-miterlimit="10" d="M49.529,51.225c-4.396-4.396-10.951-5.884-12.063-6.109
		V37.8H19.278c0,0,0.038,6.903,0,6.868c0,0-6.874,0.997-12.308,6.432C1.378,56.691,0.5,62.77,0.5,62.77
		c0,1.938,1.575,3.492,3.523,3.492h48.51c1.947,0,3.521-1.558,3.521-3.492C56.055,62.768,54.211,55.906,49.529,51.225z"/&gt;
	
		&lt;radialGradient id="face_x5F_white_1_" cx="27.7827" cy="-734.2632" r="23.424" fx="23.2131" fy="-736.753" gradientTransform="matrix(1 0 0 -1 0.1201 -708.5371)" gradientUnits="userSpaceOnUse"&gt;
		&lt;stop  offset="0" style="stop-color:#FFD28F"/&gt;
		&lt;stop  offset="1" style="stop-color:#FFAB4F"/&gt;
	&lt;/radialGradient&gt;
	&lt;path id="face_x5F_white_3_" fill="url(#face_x5F_white_1_)" stroke="#ED9135" stroke-miterlimit="10" d="M43.676,23.357
		c0.086,10.2-6.738,18.52-15.246,18.586c-8.503,0.068-15.467-8.146-15.553-18.344C12.794,13.4,19.618,5.079,28.123,5.012
		C36.627,4.945,43.59,13.158,43.676,23.357z"/&gt;
	
		&lt;linearGradient id="face_highlight_1_" gradientUnits="userSpaceOnUse" x1="2941.4297" y1="5677.457" x2="2965.0596" y2="5770.9087" gradientTransform="matrix(0.275 0 0 0.2733 -783.3976 -1543.4047)"&gt;
		&lt;stop  offset="0" style="stop-color:#FFFFFF;stop-opacity:0.42"/&gt;
		&lt;stop  offset="1" style="stop-color:#FFFFFF;stop-opacity:0.2067"/&gt;
	&lt;/linearGradient&gt;
	&lt;path id="face_highlight_3_" fill="url(#face_highlight_1_)" d="M27.958,6.333c-6.035,0.047-10.747,4.493-12.787,10.386
		c-0.664,1.919-0.294,4.043,0.98,5.629c2.73,3.398,5.729,6.283,9.461,8.088c3.137,1.518,7.535,2.385,11.893,1.247
		c2.274-0.592,3.988-2.459,4.375-4.766c0.183-1.094,0.293-2.289,0.283-3.553C42.083,13.952,36.271,6.268,27.958,6.333z"/&gt;
	&lt;path fill="#CC9869" stroke="#99724F" stroke-linecap="round" stroke-linejoin="round" d="M32.215,9.938
		c0,0,5.688,2.75,7.688,8.125c2.104,5.652,4.123,8.232,4.188,8c1.875-6.794,1.063-21.438-10.17-21.587
		c-20.455-7.663-25.58,11.962-23.893,19.65c1.078,4.911,2.234,6.686,3.938,8.08C13.966,32.205,15.028,17.563,32.215,9.938z"/&gt;
	
		&lt;radialGradient id="collar_x5F_body_2_" cx="15.1587" cy="-765.7056" r="32.4004" gradientTransform="matrix(1 0 0 -1 0.1201 -708.5371)" gradientUnits="userSpaceOnUse"&gt;
		&lt;stop  offset="0" style="stop-color:#B0E8FF"/&gt;
		&lt;stop  offset="1" style="stop-color:#74AEEE"/&gt;
	&lt;/radialGradient&gt;
	&lt;path id="collar_x5F_body_1_" fill="url(#collar_x5F_body_2_)" stroke="#5491CF" d="M0.5,62.768c0,1.938,1.575,3.494,3.523,3.494
		h48.51c1.947,0,3.521-1.559,3.521-3.494c0,0-1.844-6.861-6.525-11.543c-4.815-4.813-11.244-6.146-11.244-6.146
		c-1.771,1.655-5.61,2.802-10.063,2.802c-4.453,0-8.292-1.146-10.063-2.802c0,0-5.755,0.586-11.189,6.021
		C1.378,56.689,0.5,62.768,0.5,62.768z"/&gt;
	
		&lt;radialGradient id="collar_x5F_r_2_" cx="31.5" cy="-755.832" r="9.2834" gradientTransform="matrix(1 0 0 -1 0.1201 -708.5371)" gradientUnits="userSpaceOnUse"&gt;
		&lt;stop  offset="0" style="stop-color:#80CCFF"/&gt;
		&lt;stop  offset="1" style="stop-color:#74AEEE"/&gt;
	&lt;/radialGradient&gt;
	&lt;path id="collar_x5F_r_1_" fill="url(#collar_x5F_r_2_)" stroke="#5491CF" d="M38.159,41.381c0,0-0.574,2.369-3.013,4.441
		c-2.108,1.795-5.783,2.072-5.783,2.072l3.974,6.217c0,0,2.957-1.637,5.009-3.848c1.922-2.072,1.37-5.479,1.37-5.479L38.159,41.381z
		"/&gt;
	
		&lt;radialGradient id="collar_x5F_l_2_" cx="19.1377" cy="-755.873" r="9.2837" gradientTransform="matrix(1 0 0 -1 0.1201 -708.5371)" gradientUnits="userSpaceOnUse"&gt;
		&lt;stop  offset="0" style="stop-color:#80CCFF"/&gt;
		&lt;stop  offset="1" style="stop-color:#74AEEE"/&gt;
	&lt;/radialGradient&gt;
	&lt;path id="collar_x5F_l_1_" fill="url(#collar_x5F_l_2_)" stroke="#5491CF" d="M18.63,41.422c0,0,0.576,2.369,3.012,4.441
		c2.109,1.793,5.785,2.072,5.785,2.072l-3.974,6.217c0,0-2.957-1.637-5.007-3.85c-1.922-2.072-1.37-5.48-1.37-5.48L18.63,41.422z"/&gt;
	
		&lt;radialGradient id="Knob2_2_" cx="27.8872" cy="7.9414" r="0.9669" gradientTransform="matrix(1 0 0 -1 0.04 64.1543)" gradientUnits="userSpaceOnUse"&gt;
		&lt;stop  offset="0" style="stop-color:#80CCFF"/&gt;
		&lt;stop  offset="1" style="stop-color:#74AEEE"/&gt;
	&lt;/radialGradient&gt;
	&lt;circle id="Knob2_1_" fill="url(#Knob2_2_)" stroke="#5491CF" cx="28.258" cy="56.254" r="0.584"/&gt;
	
		&lt;radialGradient id="Knob1_2_" cx="27.9253" cy="1.6973" r="0.9669" gradientTransform="matrix(1 0 0 -1 0.04 64.1543)" gradientUnits="userSpaceOnUse"&gt;
		&lt;stop  offset="0" style="stop-color:#80CCFF"/&gt;
		&lt;stop  offset="1" style="stop-color:#74AEEE"/&gt;
	&lt;/radialGradient&gt;
	&lt;circle id="Knob1_1_" fill="url(#Knob1_2_)" stroke="#5491CF" cx="28.296" cy="62.499" r="0.584"/&gt;
&lt;/g&gt;
&lt;/svg&gt;
</y:Resource>
      <y:Resource id="2" xml:space="preserve">&lt;?xml version="1.0" encoding="utf-8"?&gt;
&lt;svg version="1.1" id="Ebene_1" xmlns="http://www.w3.org/2000/svg" xmlns:xlink="http://www.w3.org/1999/xlink" x="0px" y="0px"
	 width="57px" height="65px" viewBox="0 0 57 65" enable-background="new 0 0 57 65" xml:space="preserve"&gt;
&lt;g&gt;
	
		&lt;radialGradient id="neck_x5F_white_1_" cx="27.8696" cy="-2299.3257" r="11.4448" fx="25.6369" fy="-2300.5422" gradientTransform="matrix(1 0 0 -1 0.2803 -2253.9199)" gradientUnits="userSpaceOnUse"&gt;
		&lt;stop  offset="0" style="stop-color:#B38E5D"/&gt;
		&lt;stop  offset="1" style="stop-color:#805126"/&gt;
	&lt;/radialGradient&gt;
	&lt;path id="neck_x5F_white_2_" fill="url(#neck_x5F_white_1_)" stroke="#5B453B" stroke-miterlimit="10" d="M19.278,37.799h18.188
		v13.23c-1.313,0.371-17.173,0.436-18.188,0.172V37.799z"/&gt;
	
		&lt;radialGradient id="SVGID_1_" cx="27.3228" cy="-2307.6812" r="31.0537" fx="21.2648" fy="-2310.9819" gradientTransform="matrix(1 0 0 -1 0.2803 -2253.9199)" gradientUnits="userSpaceOnUse"&gt;
		&lt;stop  offset="0" style="stop-color:#B38E5D"/&gt;
		&lt;stop  offset="1" style="stop-color:#805126"/&gt;
	&lt;/radialGradient&gt;
	&lt;path fill="url(#SVGID_1_)" stroke="#5B453B" stroke-miterlimit="10" d="M49.529,51.225c-4.396-4.396-10.951-5.884-12.063-6.109
		V37.8H19.278c0,0,0.038,6.903,0,6.868c0,0-6.874,0.997-12.308,6.432C1.378,56.691,0.5,62.77,0.5,62.77
		c0,1.938,1.575,3.492,3.523,3.492h48.51c1.947,0,3.521-1.558,3.521-3.492C56.055,62.768,54.211,55.906,49.529,51.225z"/&gt;
	
		&lt;linearGradient id="body_1_" gradientUnits="userSpaceOnUse" x1="59.7656" y1="2374.7451" x2="-3.673" y2="2374.7451" gradientTransform="matrix(1 0 0 1 0.2402 -2319.0742)"&gt;
		&lt;stop  offset="0" style="stop-color:#49AD33"/&gt;
		&lt;stop  offset="1" style="stop-color:#C2DA92"/&gt;
	&lt;/linearGradient&gt;
	&lt;path id="body_12_" fill="url(#body_1_)" stroke="#008D33" d="M0.5,62.768c0,1.938,1.575,3.494,3.523,3.494h48.51
		c1.947,0,3.521-1.559,3.521-3.494c0,0-1.844-6.861-6.525-11.543c-4.815-4.813-11.244-6.146-11.244-6.146
		c-1.771,1.655-5.61,3.802-10.063,3.802c-4.453,0-8.292-2.146-10.063-3.802c0,0-5.755,0.586-11.189,6.021
		C1.378,56.689,0.5,62.768,0.5,62.768z"/&gt;
	&lt;path fill="#2068A3" stroke="#2068A3" d="M28.106,33.486c-8.112,0-12.688,4.313-12.688,10.438c0,7.422,12.688,10.438,12.688,10.438
		s14.688-3.016,14.688-10.438C42.793,38.75,36.215,33.486,28.106,33.486z M26.288,53.051c0,0-7.135-2.093-8.805-7.201
		c-0.222-0.682,0.147-1.156,0.795-1.521V37.8h20.188v6.663c0.235,0.352,1.109,0.737,1.229,1.387
		C40.445,49.917,26.288,53.051,26.288,53.051z"/&gt;
	&lt;path fill="#5491CF" stroke="#2068A3" stroke-miterlimit="10" d="M49.529,51.225c-2.239-2.24-5.041-3.724-7.396-4.67
		c-2.854,5.51-14.022,7.807-14.022,7.807s-10.472-2.484-12.387-8.514c-2.439,0.771-5.787,2.287-8.749,5.25
		c-5.592,5.592-6.47,11.67-6.47,11.67c0,1.938,1.575,3.492,3.523,3.492h48.51c1.947,0,3.521-1.558,3.521-3.492
		C56.055,62.768,54.211,55.906,49.529,51.225z"/&gt;
	&lt;path fill="#5491CF" stroke="#2068A3" d="M13.404,44.173c1.15-1.81,2.039-3.832,3.332-5.397c-0.514,1.027-1.669,4.084-1.669,5.148
		c0,5.186,10.366,9.079,14.688,10.438c-3.472,1.627-9.134-1.498-11.335-2.36c-3.601-1.419-4.071-3.063-5.89-4.854
		C12.523,47.135,12.878,45,13.404,44.173z"/&gt;
	&lt;path fill="#5491CF" stroke="#2068A3" d="M45.777,43.924c-1.317-1.568-5.11-9.424-6.604-6.617c0.516,1.025,3.617,3.693,3.617,6.617
		c0,5.186-10.27,8.576-16.698,9.145c1.429,4.938,11.372,1.293,13.804-0.313c3.563-2.354,4.563-5.133,7.854-3.705
		C47.754,49.045,48.006,46.574,45.777,43.924z"/&gt;
	&lt;path fill="none" stroke="#2068A3" stroke-linecap="round" d="M30.777,54.167c0.357,0.836-0.153,1.983-0.352,2.813
		c-0.256,1.084-0.072,2.104,0.102,3.186c0.164,1.02,0.156,2.107,0.25,3.167c0.082,0.916,0.482,1.849,0.357,2.75"/&gt;
	&lt;path fill="none" stroke="#2068A3" stroke-linecap="round" d="M23.695,53.417c-0.508,0.584-0.476,2.209-0.398,3
		c0.116,1.183,0.456,2.099,0.333,3.333c-0.192,1.943,0.154,4.479-0.436,6.333"/&gt;
	
		&lt;radialGradient id="face_x5F_white_1_" cx="27.623" cy="-2279.646" r="23.425" fx="23.0534" fy="-2282.1357" gradientTransform="matrix(1 0 0 -1 0.2803 -2253.9199)" gradientUnits="userSpaceOnUse"&gt;
		&lt;stop  offset="0" style="stop-color:#B38E5D"/&gt;
		&lt;stop  offset="1" style="stop-color:#805126"/&gt;
	&lt;/radialGradient&gt;
	&lt;path id="face_x5F_white_2_" fill="url(#face_x5F_white_1_)" stroke="#5B453B" stroke-miterlimit="10" d="M43.676,23.357
		c0.086,10.2-6.738,18.52-15.25,18.586c-8.5,0.068-15.464-8.146-15.55-18.344C12.794,13.4,19.618,5.079,28.123,5.012
		C36.627,4.945,43.59,13.158,43.676,23.357z"/&gt;
	
		&lt;linearGradient id="face_highlight_1_" gradientUnits="userSpaceOnUse" x1="5761.7578" y1="11331.9785" x2="5785.3872" y2="11425.4277" gradientTransform="matrix(0.275 0 0 0.2733 -1558.9874 -3088.7842)"&gt;
		&lt;stop  offset="0" style="stop-color:#FFFFFF;stop-opacity:0.42"/&gt;
		&lt;stop  offset="1" style="stop-color:#FFFFFF;stop-opacity:0.12"/&gt;
	&lt;/linearGradient&gt;
	&lt;path id="face_highlight_2_" fill="url(#face_highlight_1_)" d="M27.958,6.333c-6.035,0.047-10.747,4.493-12.787,10.386
		c-0.664,1.919-0.294,4.043,0.98,5.629c2.73,3.398,5.729,6.283,9.461,8.088c3.137,1.518,7.535,2.385,11.893,1.247
		c2.274-0.592,3.988-2.459,4.375-4.766c0.187-1.094,0.293-2.289,0.283-3.553C42.083,13.952,36.271,6.268,27.958,6.333z"/&gt;
	&lt;path id="Hair_Young_Black_1_" fill="#4B4B4B" stroke="#000000" stroke-linecap="round" stroke-linejoin="round" d="M20.278,13.25
		c3.417,4.333,9.333,6.917,9.333,6.917l-1.417-3.5c0,0,7.094,4.691,8.083,4.333c0.968-0.2-1.082-3.807-1.082-3.807
		s3.138,1.795,4.854,3.969c1.803,2.28,4.285,3.504,4.285,3.504S47.027,2.719,27.289,2.744C8.278,2.709,12.058,27.678,12.058,27.678
		L14.695,17c0,0,0.914,5.757,1.399,4.875C17.861,15.211,18.861,11.5,20.278,13.25z"/&gt;
&lt;/g&gt;
&lt;/svg&gt;
</y:Resource>
      <y:Resource id="3" xml:space="preserve">&lt;?xml version="1.0" standalone="no"?&gt;
&lt;!DOCTYPE svg PUBLIC "-//W3C//DTD SVG 20010904//EN"
 "http://www.w3.org/TR/2001/REC-SVG-20010904/DTD/svg10.dtd"&gt;
&lt;svg version="1.0" xmlns="http://www.w3.org/2000/svg"
 width="1249.000000pt" height="1280.000000pt" viewBox="0 0 1249.000000 1280.000000"
 preserveAspectRatio="xMidYMid meet"&gt;
&lt;metadata&gt;
Created by potrace 1.15, written by Peter Selinger 2001-2017
&lt;/metadata&gt;
&lt;g transform="translate(0.000000,1280.000000) scale(0.100000,-0.100000)"
fill="#ffcc33" stroke="none"&gt;
&lt;path d="M8130 12790 c-789 -60 -1484 -324 -2070 -786 -729 -575 -1154 -1349
-1262 -2299 -18 -164 -15 -570 6 -745 44 -366 127 -696 258 -1018 27 -68 48
-125 46 -126 -1 -2 -198 -37 -437 -79 -375 -65 -442 -80 -496 -106 -81 -40
-164 -124 -206 -209 -32 -63 -34 -73 -34 -172 0 -99 2 -109 33 -172 30 -61 55
-88 295 -309 144 -132 262 -247 262 -253 0 -7 -138 -168 -306 -357 -2811
-3166 -4029 -4541 -4039 -4559 -32 -59 -125 -433 -157 -625 -26 -161 -24 -438
4 -561 41 -176 138 -374 197 -402 30 -15 10 -17 696 64 162 19 527 57 811 84
284 27 523 52 532 56 24 9 578 595 588 622 5 13 9 184 9 381 l0 358 68 7 c37
3 292 22 567 42 275 20 511 41 525 48 29 13 424 457 447 502 14 29 13 72 -16
535 -17 277 -33 514 -35 527 -2 16 2 23 18 26 11 3 266 21 566 41 699 47 659
42 692 76 20 19 28 38 28 61 0 18 -11 227 -25 463 -14 237 -25 435 -25 442 0
6 127 163 282 350 154 186 282 339 284 341 1 2 143 -117 316 -265 172 -147
333 -285 358 -306 62 -53 193 -115 265 -126 112 -17 206 12 277 86 70 72 82
115 179 635 50 265 92 485 95 487 2 3 51 -7 109 -22 950 -247 1965 -154 2777
254 541 272 1024 711 1344 1224 280 448 446 933 516 1505 17 138 17 593 0 730
-42 343 -114 631 -232 926 -196 490 -455 900 -806 1275 -699 745 -1614 1214
-2604 1335 -151 18 -541 26 -700 14z m1580 -1724 c336 -60 596 -339 617 -661
26 -403 -304 -744 -718 -745 -78 0 -218 29 -295 61 -348 145 -533 538 -415
881 112 325 463 526 811 464z"/&gt;
&lt;/g&gt;
&lt;/svg&gt;
</y:Resource>
    </y:Resources>
  </data>
</graphml>
