<?xml version="1.0" encoding="UTF-8" standalone="no"?>
<graphml xmlns="http://graphml.graphdrawing.org/xmlns" xmlns:java="http://www.yworks.com/xml/yfiles-common/1.0/java" xmlns:sys="http://www.yworks.com/xml/yfiles-common/markup/primitives/2.0" xmlns:x="http://www.yworks.com/xml/yfiles-common/markup/2.0" xmlns:xsi="http://www.w3.org/2001/XMLSchema-instance" xmlns:y="http://www.yworks.com/xml/graphml" xmlns:yed="http://www.yworks.com/xml/yed/3" xsi:schemaLocation="http://graphml.graphdrawing.org/xmlns http://www.yworks.com/xml/schema/graphml/1.1/ygraphml.xsd">
  <!--Created by yEd 3.23.2-->
  <key attr.name="Description" attr.type="string" for="graph" id="d0"/>
  <key for="port" id="d1" yfiles.type="portgraphics"/>
  <key for="port" id="d2" yfiles.type="portgeometry"/>
  <key for="port" id="d3" yfiles.type="portuserdata"/>
  <key attr.name="url" attr.type="string" for="node" id="d4"/>
  <key attr.name="description" attr.type="string" for="node" id="d5"/>
  <key for="node" id="d6" yfiles.type="nodegraphics"/>
  <key for="graphml" id="d7" yfiles.type="resources"/>
  <key attr.name="url" attr.type="string" for="edge" id="d8"/>
  <key attr.name="description" attr.type="string" for="edge" id="d9"/>
  <key for="edge" id="d10" yfiles.type="edgegraphics"/>
  <graph edgedefault="directed" id="G">
    <data key="d0"/>
    <node id="n0">
      <data key="d6">
        <y:SVGNode>
          <y:Geometry height="60.0" width="60.0" x="1245.7888984680176" y="973.4490814208984"/>
          <y:Fill color="#CCCCFF" transparent="false"/>
          <y:BorderStyle color="#000000" type="line" width="1.0"/>
          <y:NodeLabel alignment="center" autoSizePolicy="content" fontFamily="Fira Sans Light" fontSize="12" fontStyle="plain" hasBackgroundColor="false" hasLineColor="false" height="18.400100708007812" horizontalTextPosition="center" iconTextGap="4" modelName="sandwich" modelPosition="s" textColor="#000000" verticalTextPosition="bottom" visible="true" width="28.324172973632812" x="15.837913513183594" xml:space="preserve" y="64.0">PUB.</y:NodeLabel>
          <y:SVGNodeProperties usingVisualBounds="true"/>
          <y:SVGModel svgBoundsPolicy="0">
            <y:SVGContent refid="1"/>
          </y:SVGModel>
        </y:SVGNode>
      </data>
    </node>
    <node id="n1">
      <data key="d6">
        <y:SVGNode>
          <y:Geometry height="60.0" width="60.0" x="1355.400749206543" y="724.9209899902344"/>
          <y:Fill color="#CCCCFF" transparent="false"/>
          <y:BorderStyle color="#000000" type="line" width="1.0"/>
          <y:NodeLabel alignment="center" autoSizePolicy="content" fontFamily="Fira Sans Light" fontSize="12" fontStyle="plain" hasBackgroundColor="false" hasLineColor="false" height="18.400100708007812" horizontalTextPosition="center" iconTextGap="4" modelName="sandwich" modelPosition="s" textColor="#000000" verticalTextPosition="bottom" visible="true" width="30.340179443359375" x="14.829910278320312" xml:space="preserve" y="64.0">PRIV.</y:NodeLabel>
          <y:SVGNodeProperties usingVisualBounds="true"/>
          <y:SVGModel svgBoundsPolicy="0">
            <y:SVGContent refid="2"/>
          </y:SVGModel>
        </y:SVGNode>
      </data>
    </node>
    <node id="n2">
      <data key="d6">
        <y:SVGNode>
          <y:Geometry height="64.53585815429688" width="56.558998107910156" x="1445.400749206543" y="720.3851318359375"/>
          <y:Fill color="#CCCCFF" transparent="false"/>
          <y:BorderStyle color="#000000" type="line" width="1.0"/>
          <y:NodeLabel alignment="center" autoSizePolicy="content" fontFamily="Fira Sans Light" fontSize="12" fontStyle="plain" hasBackgroundColor="false" hasLineColor="false" height="18.400100708007812" horizontalTextPosition="center" iconTextGap="4" modelName="custom" textColor="#000000" verticalTextPosition="bottom" visible="true" width="24.916152954101562" x="15.821422576904297" xml:space="preserve" y="68.53585815429688">Bob<y:LabelModel><y:SmartNodeLabelModel distance="4.0"/></y:LabelModel><y:ModelParameter><y:SmartNodeLabelModelParameter labelRatioX="0.0" labelRatioY="-0.5" nodeRatioX="0.0" nodeRatioY="0.5" offsetX="0.0" offsetY="4.0" upX="0.0" upY="-1.0"/></y:ModelParameter></y:NodeLabel>
          <y:SVGNodeProperties usingVisualBounds="true"/>
          <y:SVGModel svgBoundsPolicy="0">
            <y:SVGContent refid="3"/>
          </y:SVGModel>
        </y:SVGNode>
      </data>
    </node>
    <node id="n3">
      <data key="d6">
        <y:SVGNode>
          <y:Geometry height="69.94900512695312" width="56.554100036621094" x="845.4031982421875" y="712.7040557861328"/>
          <y:Fill color="#CCCCFF" transparent="false"/>
          <y:BorderStyle color="#000000" type="line" width="1.0"/>
          <y:NodeLabel alignment="center" autoSizePolicy="content" fontFamily="Fira Sans Light" fontSize="12" fontStyle="plain" hasBackgroundColor="false" hasLineColor="false" height="18.400100708007812" horizontalTextPosition="center" iconTextGap="4" modelName="custom" textColor="#000000" verticalTextPosition="bottom" visible="true" width="29.512176513671875" x="13.52096176147461" xml:space="preserve" y="73.94900512695312">Alice<y:LabelModel><y:SmartNodeLabelModel distance="4.0"/></y:LabelModel><y:ModelParameter><y:SmartNodeLabelModelParameter labelRatioX="0.0" labelRatioY="-0.5" nodeRatioX="0.0" nodeRatioY="0.5" offsetX="0.0" offsetY="4.0" upX="0.0" upY="-1.0"/></y:ModelParameter></y:NodeLabel>
          <y:SVGNodeProperties usingVisualBounds="true"/>
          <y:SVGModel svgBoundsPolicy="0">
            <y:SVGContent refid="4"/>
          </y:SVGModel>
        </y:SVGNode>
      </data>
    </node>
    <node id="n4">
      <data key="d5"/>
      <data key="d6">
        <y:SVGNode>
          <y:Geometry height="62.31911087036133" width="56.55500030517578" x="1159.2338981628418" y="972.2895259857178"/>
          <y:Fill color="#CCCCFF" transparent="false"/>
          <y:BorderStyle color="#000000" type="line" width="1.0"/>
          <y:NodeLabel alignment="center" autoSizePolicy="content" fontFamily="Dialog" fontSize="12" fontStyle="plain" hasBackgroundColor="false" hasLineColor="false" hasText="false" height="4.0" horizontalTextPosition="center" iconTextGap="4" modelName="custom" textColor="#000000" verticalTextPosition="bottom" visible="true" width="4.0" x="26.27750015258789" y="66.31911087036133">
            <y:LabelModel>
              <y:SmartNodeLabelModel distance="4.0"/>
            </y:LabelModel>
            <y:ModelParameter>
              <y:SmartNodeLabelModelParameter labelRatioX="0.0" labelRatioY="-0.5" nodeRatioX="0.0" nodeRatioY="0.5" offsetX="0.0" offsetY="4.0" upX="0.0" upY="-1.0"/>
            </y:ModelParameter>
          </y:NodeLabel>
          <y:SVGNodeProperties usingVisualBounds="true"/>
          <y:SVGModel svgBoundsPolicy="0">
            <y:SVGContent refid="5"/>
          </y:SVGModel>
        </y:SVGNode>
      </data>
    </node>
    <node id="n5">
      <data key="d5"/>
      <data key="d6">
        <y:SVGNode>
          <y:Geometry height="91.0" width="91.0" x="931.9572982788086" y="709.4209899902344"/>
          <y:Fill color="#CCCCFF" transparent="false"/>
          <y:BorderStyle color="#000000" type="line" width="1.0"/>
          <y:NodeLabel alignment="center" autoSizePolicy="content" fontFamily="Fira Sans Light" fontSize="12" fontStyle="plain" hasBackgroundColor="false" hasLineColor="false" height="18.400100708007812" horizontalTextPosition="center" iconTextGap="4" modelName="custom" textColor="#000000" verticalTextPosition="bottom" visible="true" width="28.324172973632812" x="31.337913513183594" xml:space="preserve" y="68.59989929199219">PUB.<y:LabelModel><y:SmartNodeLabelModel distance="4.0"/></y:LabelModel><y:ModelParameter><y:SmartNodeLabelModelParameter labelRatioX="0.0" labelRatioY="0.5" nodeRatioX="0.0" nodeRatioY="0.5" offsetX="0.0" offsetY="-4.0" upX="0.0" upY="-1.0"/></y:ModelParameter></y:NodeLabel>
          <y:SVGNodeProperties usingVisualBounds="true"/>
          <y:SVGModel svgBoundsPolicy="0">
            <y:SVGContent refid="6"/>
          </y:SVGModel>
        </y:SVGNode>
      </data>
    </node>
    <node id="n6">
      <data key="d5"/>
      <data key="d6">
        <y:SVGNode>
          <y:Geometry height="91.0" width="91.0" x="1051.593898162842" y="1048.9490814208984"/>
          <y:Fill color="#CCCCFF" transparent="false"/>
          <y:BorderStyle color="#000000" type="line" width="1.0"/>
          <y:NodeLabel alignment="center" autoSizePolicy="content" fontFamily="Fira Sans Light" fontSize="12" fontStyle="plain" hasBackgroundColor="false" hasLineColor="false" height="18.400100708007812" horizontalTextPosition="center" iconTextGap="4" modelName="custom" textColor="#000000" verticalTextPosition="bottom" visible="true" width="30.340179443359375" x="30.329910278320312" xml:space="preserve" y="68.59989929199219">PRIV.<y:LabelModel><y:SmartNodeLabelModel distance="4.0"/></y:LabelModel><y:ModelParameter><y:SmartNodeLabelModelParameter labelRatioX="0.0" labelRatioY="0.5" nodeRatioX="0.0" nodeRatioY="0.5" offsetX="0.0" offsetY="-4.0" upX="0.0" upY="-1.0"/></y:ModelParameter></y:NodeLabel>
          <y:SVGNodeProperties usingVisualBounds="true"/>
          <y:SVGModel svgBoundsPolicy="0">
            <y:SVGContent refid="6"/>
          </y:SVGModel>
        </y:SVGNode>
      </data>
    </node>
    <node id="n7">
      <data key="d5"/>
      <data key="d6">
        <y:SVGNode>
          <y:Geometry height="91.0" width="91.0" x="1051.593898162842" y="957.9490814208984"/>
          <y:Fill color="#CCCCFF" transparent="false"/>
          <y:BorderStyle color="#000000" type="line" width="1.0"/>
          <y:NodeLabel alignment="center" autoSizePolicy="content" fontFamily="Fira Sans Light" fontSize="12" fontStyle="plain" hasBackgroundColor="false" hasLineColor="false" height="18.400100708007812" horizontalTextPosition="center" iconTextGap="4" modelName="custom" textColor="#000000" verticalTextPosition="bottom" visible="true" width="28.324172973632812" x="31.337913513183594" xml:space="preserve" y="68.59989929199219">PUB.<y:LabelModel><y:SmartNodeLabelModel distance="4.0"/></y:LabelModel><y:ModelParameter><y:SmartNodeLabelModelParameter labelRatioX="0.0" labelRatioY="0.5" nodeRatioX="0.0" nodeRatioY="0.5" offsetX="0.0" offsetY="-4.0" upX="0.0" upY="-1.0"/></y:ModelParameter></y:NodeLabel>
          <y:SVGNodeProperties usingVisualBounds="true"/>
          <y:SVGModel svgBoundsPolicy="0">
            <y:SVGContent refid="6"/>
          </y:SVGModel>
        </y:SVGNode>
      </data>
    </node>
    <node id="n8">
      <data key="d6">
        <y:GenericNode configuration="com.yworks.flowchart.paperType">
          <y:Geometry height="90.0" width="90.0" x="1340.400749206543" y="615.0"/>
          <y:Fill color="#EBF8FF" transparent="false"/>
          <y:BorderStyle color="#000000" type="line" width="1.0"/>
          <y:NodeLabel alignment="center" autoSizePolicy="content" fontFamily="Fira Sans Light" fontSize="18" fontStyle="plain" hasBackgroundColor="false" hasLineColor="false" height="47.199729919433594" horizontalTextPosition="center" iconTextGap="4" modelName="custom" textColor="#000000" verticalTextPosition="bottom" visible="true" width="72.2735595703125" x="8.86322021484375" xml:space="preserve" y="21.400135040283203">Message
en clair<y:LabelModel><y:SmartNodeLabelModel distance="4.0"/></y:LabelModel><y:ModelParameter><y:SmartNodeLabelModelParameter labelRatioX="0.0" labelRatioY="0.0" nodeRatioX="0.0" nodeRatioY="0.0" offsetX="0.0" offsetY="0.0" upX="0.0" upY="-1.0"/></y:ModelParameter></y:NodeLabel>
        </y:GenericNode>
      </data>
    </node>
    <node id="n9">
      <data key="d6">
        <y:GenericNode configuration="com.yworks.flowchart.paperType">
          <y:Geometry height="90.0" width="90.0" x="1349.400749206543" y="825.0"/>
          <y:Fill color="#FFFAEB" transparent="false"/>
          <y:BorderStyle color="#000000" type="line" width="1.0"/>
          <y:NodeLabel alignment="center" autoSizePolicy="content" fontFamily="Fira Sans Light" fontSize="18" fontStyle="plain" hasBackgroundColor="false" hasLineColor="false" height="47.199729919433594" horizontalTextPosition="center" iconTextGap="4" modelName="custom" textColor="#000000" verticalTextPosition="bottom" visible="true" width="66.62159729003906" x="11.689201354980469" xml:space="preserve" y="21.400135040283203">dzeiuhg
"'xqczç_<y:LabelModel><y:SmartNodeLabelModel distance="4.0"/></y:LabelModel><y:ModelParameter><y:SmartNodeLabelModelParameter labelRatioX="0.0" labelRatioY="0.0" nodeRatioX="0.0" nodeRatioY="0.0" offsetX="0.0" offsetY="0.0" upX="0.0" upY="-1.0"/></y:ModelParameter></y:NodeLabel>
        </y:GenericNode>
      </data>
    </node>
    <edge id="e0" source="n8" target="n9">
      <data key="d10">
        <y:ArcEdge>
          <y:Path sx="0.0" sy="0.0" tx="0.0" ty="0.0">
            <y:Point x="1348.6007080078125" y="766.77001953125"/>
          </y:Path>
          <y:LineStyle color="#C0C0C0" type="line" width="7.0"/>
          <y:Arrows source="delta" target="none"/>
          <y:Arc height="-41.337913513183594" ratio="-0.7866666913032532" type="fixedRatio"/>
        </y:ArcEdge>
      </data>
    </edge>
  </graph>
  <data key="d7">
    <y:Resources>
      <y:Resource id="1" xml:space="preserve">&lt;?xml version="1.0" standalone="no"?&gt;
&lt;!DOCTYPE svg PUBLIC "-//W3C//DTD SVG 20010904//EN"
 "http://www.w3.org/TR/2001/REC-SVG-20010904/DTD/svg10.dtd"&gt;
&lt;svg version="1.0" xmlns="http://www.w3.org/2000/svg"
 width="1249.000000pt" height="1280.000000pt" viewBox="0 0 1249.000000 1280.000000"
 preserveAspectRatio="xMidYMid meet"&gt;
&lt;metadata&gt;
Created by potrace 1.15, written by Peter Selinger 2001-2017
&lt;/metadata&gt;
&lt;g transform="translate(0.000000,1280.000000) scale(0.100000,-0.100000)"
fill="#809966" stroke="none"&gt;
&lt;path d="M8130 12790 c-789 -60 -1484 -324 -2070 -786 -729 -575 -1154 -1349
-1262 -2299 -18 -164 -15 -570 6 -745 44 -366 127 -696 258 -1018 27 -68 48
-125 46 -126 -1 -2 -198 -37 -437 -79 -375 -65 -442 -80 -496 -106 -81 -40
-164 -124 -206 -209 -32 -63 -34 -73 -34 -172 0 -99 2 -109 33 -172 30 -61 55
-88 295 -309 144 -132 262 -247 262 -253 0 -7 -138 -168 -306 -357 -2811
-3166 -4029 -4541 -4039 -4559 -32 -59 -125 -433 -157 -625 -26 -161 -24 -438
4 -561 41 -176 138 -374 197 -402 30 -15 10 -17 696 64 162 19 527 57 811 84
284 27 523 52 532 56 24 9 578 595 588 622 5 13 9 184 9 381 l0 358 68 7 c37
3 292 22 567 42 275 20 511 41 525 48 29 13 424 457 447 502 14 29 13 72 -16
535 -17 277 -33 514 -35 527 -2 16 2 23 18 26 11 3 266 21 566 41 699 47 659
42 692 76 20 19 28 38 28 61 0 18 -11 227 -25 463 -14 237 -25 435 -25 442 0
6 127 163 282 350 154 186 282 339 284 341 1 2 143 -117 316 -265 172 -147
333 -285 358 -306 62 -53 193 -115 265 -126 112 -17 206 12 277 86 70 72 82
115 179 635 50 265 92 485 95 487 2 3 51 -7 109 -22 950 -247 1965 -154 2777
254 541 272 1024 711 1344 1224 280 448 446 933 516 1505 17 138 17 593 0 730
-42 343 -114 631 -232 926 -196 490 -455 900 -806 1275 -699 745 -1614 1214
-2604 1335 -151 18 -541 26 -700 14z m1580 -1724 c336 -60 596 -339 617 -661
26 -403 -304 -744 -718 -745 -78 0 -218 29 -295 61 -348 145 -533 538 -415
881 112 325 463 526 811 464z"/&gt;
&lt;/g&gt;
&lt;/svg&gt;
</y:Resource>
      <y:Resource id="2" xml:space="preserve">&lt;?xml version="1.0" standalone="no"?&gt;
&lt;!DOCTYPE svg PUBLIC "-//W3C//DTD SVG 20010904//EN"
 "http://www.w3.org/TR/2001/REC-SVG-20010904/DTD/svg10.dtd"&gt;
&lt;svg version="1.0" xmlns="http://www.w3.org/2000/svg"
 width="1249.000000pt" height="1280.000000pt" viewBox="0 0 1249.000000 1280.000000"
 preserveAspectRatio="xMidYMid meet"&gt;
&lt;metadata&gt;
Created by potrace 1.15, written by Peter Selinger 2001-2017
&lt;/metadata&gt;
&lt;g transform="translate(0.000000,1280.000000) scale(0.100000,-0.100000)"
fill="#cc6666" stroke="none"&gt;
&lt;path d="M8130 12790 c-789 -60 -1484 -324 -2070 -786 -729 -575 -1154 -1349
-1262 -2299 -18 -164 -15 -570 6 -745 44 -366 127 -696 258 -1018 27 -68 48
-125 46 -126 -1 -2 -198 -37 -437 -79 -375 -65 -442 -80 -496 -106 -81 -40
-164 -124 -206 -209 -32 -63 -34 -73 -34 -172 0 -99 2 -109 33 -172 30 -61 55
-88 295 -309 144 -132 262 -247 262 -253 0 -7 -138 -168 -306 -357 -2811
-3166 -4029 -4541 -4039 -4559 -32 -59 -125 -433 -157 -625 -26 -161 -24 -438
4 -561 41 -176 138 -374 197 -402 30 -15 10 -17 696 64 162 19 527 57 811 84
284 27 523 52 532 56 24 9 578 595 588 622 5 13 9 184 9 381 l0 358 68 7 c37
3 292 22 567 42 275 20 511 41 525 48 29 13 424 457 447 502 14 29 13 72 -16
535 -17 277 -33 514 -35 527 -2 16 2 23 18 26 11 3 266 21 566 41 699 47 659
42 692 76 20 19 28 38 28 61 0 18 -11 227 -25 463 -14 237 -25 435 -25 442 0
6 127 163 282 350 154 186 282 339 284 341 1 2 143 -117 316 -265 172 -147
333 -285 358 -306 62 -53 193 -115 265 -126 112 -17 206 12 277 86 70 72 82
115 179 635 50 265 92 485 95 487 2 3 51 -7 109 -22 950 -247 1965 -154 2777
254 541 272 1024 711 1344 1224 280 448 446 933 516 1505 17 138 17 593 0 730
-42 343 -114 631 -232 926 -196 490 -455 900 -806 1275 -699 745 -1614 1214
-2604 1335 -151 18 -541 26 -700 14z m1580 -1724 c336 -60 596 -339 617 -661
26 -403 -304 -744 -718 -745 -78 0 -218 29 -295 61 -348 145 -533 538 -415
881 112 325 463 526 811 464z"/&gt;
&lt;/g&gt;
&lt;/svg&gt;
</y:Resource>
      <y:Resource id="3" xml:space="preserve">&lt;?xml version="1.0" encoding="utf-8"?&gt;
&lt;svg version="1.1"
	 xmlns="http://www.w3.org/2000/svg" xmlns:xlink="http://www.w3.org/1999/xlink"
	 x="0px" y="0px" width="36px" height="57px" viewBox="0 -0.741 36 57" enable-background="new 0 -0.741 36 57"
	 xml:space="preserve"&gt;
&lt;defs&gt;
&lt;/defs&gt;
&lt;linearGradient id="SVGID_1_" gradientUnits="userSpaceOnUse" x1="230.1768" y1="798.6021" x2="180.3346" y2="798.6021" gradientTransform="matrix(1 0 0 1 -195.2002 -770.8008)"&gt;
	&lt;stop  offset="0" style="stop-color:#4D4D4D"/&gt;
	&lt;stop  offset="1" style="stop-color:#8D8D8D"/&gt;
&lt;/linearGradient&gt;
&lt;rect y="0.943" fill="url(#SVGID_1_)" width="34.977" height="53.716"/&gt;
&lt;linearGradient id="SVGID_2_" gradientUnits="userSpaceOnUse" x1="224.6807" y1="798.6021" x2="200.6973" y2="798.6021" gradientTransform="matrix(1 0 0 1 -195.2002 -770.8008)"&gt;
	&lt;stop  offset="0.0319" style="stop-color:#848484"/&gt;
	&lt;stop  offset="0.1202" style="stop-color:#8C8C8C"/&gt;
	&lt;stop  offset="0.308" style="stop-color:#969696"/&gt;
	&lt;stop  offset="0.5394" style="stop-color:#999999"/&gt;
	&lt;stop  offset="0.5501" style="stop-color:#9C9C9C"/&gt;
	&lt;stop  offset="0.6256" style="stop-color:#B0B0B0"/&gt;
	&lt;stop  offset="0.7118" style="stop-color:#BEBEBE"/&gt;
	&lt;stop  offset="0.8178" style="stop-color:#C7C7C7"/&gt;
	&lt;stop  offset="1" style="stop-color:#C9C9C9"/&gt;
&lt;/linearGradient&gt;
&lt;path fill="url(#SVGID_2_)" d="M5.497,0.943c7.945-1.258,16.04-1.258,23.983,0c0,17.905,0,35.811,0,53.716
	c-7.943,1.258-16.039,1.258-23.983,0C5.497,36.753,5.497,18.848,5.497,0.943z"/&gt;
&lt;path fill="#515151" d="M5.497,14.621c7.995,0,15.989,0,23.983,0c0,13.346,0,26.693,0,40.037c-7.943,1.258-16.039,1.258-23.983,0
	C5.497,41.314,5.497,27.967,5.497,14.621z"/&gt;
&lt;path opacity="0.43" fill="#565656" d="M5.497,4.745c7.982-0.628,16.001-0.628,23.983,0c0,2.707,0,5.413,0,8.12
	c-7.994,0-15.989,0-23.983,0C5.497,10.158,5.497,7.452,5.497,4.745z"/&gt;
&lt;path opacity="0.43" fill="none" stroke="#4D4D4D" stroke-width="0.0999" stroke-miterlimit="10" d="M5.497,4.745
	c7.982-0.628,16.001-0.628,23.983,0c0,2.707,0,5.413,0,8.12c-7.994,0-15.989,0-23.983,0C5.497,10.158,5.497,7.452,5.497,4.745z"/&gt;
&lt;polygon opacity="0.43" fill="#565656" stroke="#4D4D4D" stroke-width="0.0135" stroke-miterlimit="10" enable-background="new    " points="
	6.496,5.746 9.869,5.606 9.869,6.661 6.496,6.799 "/&gt;
&lt;rect x="31.307" y="2.517" fill="#E7ED00" stroke="#717171" stroke-width="0.1926" stroke-miterlimit="10" width="3.692" height="1.505"/&gt;
&lt;rect x="31.307" y="5.8" fill="#C8FF00" stroke="#717171" stroke-width="0.1926" stroke-miterlimit="10" width="3.692" height="1.507"/&gt;
&lt;linearGradient id="SVGID_3_" gradientUnits="userSpaceOnUse" x1="29.4414" y1="35.1235" x2="5.4995" y2="35.1235"&gt;
	&lt;stop  offset="0" style="stop-color:#808080"/&gt;
	&lt;stop  offset="0.1907" style="stop-color:#828282"/&gt;
	&lt;stop  offset="0.2955" style="stop-color:#8A8A8A"/&gt;
	&lt;stop  offset="0.3795" style="stop-color:#989898"/&gt;
	&lt;stop  offset="0.4524" style="stop-color:#ACACAC"/&gt;
	&lt;stop  offset="0.5175" style="stop-color:#C5C5C5"/&gt;
	&lt;stop  offset="0.5273" style="stop-color:#C9C9C9"/&gt;
	&lt;stop  offset="0.5914" style="stop-color:#C9C9C9"/&gt;
	&lt;stop  offset="0.9681" style="stop-color:#C9C9C9"/&gt;
&lt;/linearGradient&gt;
&lt;path fill="url(#SVGID_3_)" d="M5.5,14.822c0,13.22,0,26.438,0,39.66c7.931,1.256,16.012,1.256,23.941,0c0-13.222,0-26.439,0-39.66
	C21.461,14.822,13.48,14.822,5.5,14.822z M28.396,18.703c-0.74,0.01-1.482,0.02-2.225,0.029c0-0.951,0-1.901-0.001-2.85
	c0.742-0.003,1.483-0.005,2.224-0.008C28.396,16.817,28.396,17.76,28.396,18.703z M16.354,42.496c0-0.961,0-1.924,0-2.885
	c0.744,0.006,1.489,0.006,2.233,0c0,0.961,0,1.924,0,2.885C17.843,42.503,17.098,42.503,16.354,42.496z M18.587,43.568
	c0,0.955,0,1.91,0,2.866c-0.744,0.009-1.489,0.009-2.234,0c0-0.956,0-1.911,0-2.866C17.098,43.574,17.843,43.574,18.587,43.568z
	 M18.586,27.742c0,0.961,0,1.922,0,2.886c-0.744,0.004-1.488,0.004-2.231,0c0-0.964,0-1.925,0-2.886
	C17.099,27.746,17.842,27.746,18.586,27.742z M16.354,26.671c0-0.955,0-1.91,0-2.865c0.743,0.002,1.487,0.002,2.23,0
	c0,0.955,0,1.91,0,2.865C17.842,26.675,17.099,26.675,16.354,26.671z M16.354,34.583c0-0.961,0-1.924,0-2.885
	c0.744,0.004,1.488,0.004,2.231,0c0,0.961,0,1.924,0,2.885C17.842,34.588,17.099,34.588,16.354,34.583z M18.586,35.656
	c0,0.961,0,1.924,0.001,2.885c-0.745,0.008-1.489,0.008-2.233,0c0-0.961,0-1.924,0-2.885C17.099,35.66,17.842,35.66,18.586,35.656z
	 M15.307,30.619c-0.742-0.01-1.484-0.021-2.227-0.039c0-0.957,0-1.916,0-2.875c0.742,0.014,1.485,0.023,2.226,0.029
	C15.307,28.695,15.307,29.656,15.307,30.619z M15.307,31.689c0,0.961,0,1.924,0,2.885c-0.742-0.012-1.485-0.025-2.227-0.047
	c0-0.959,0.001-1.92,0.001-2.877C13.822,31.667,14.565,31.68,15.307,31.689z M15.307,35.644c0,0.959,0,1.922-0.001,2.883
	c-0.742-0.012-1.485-0.031-2.228-0.056c0-0.959,0.001-1.918,0.001-2.877C13.821,35.617,14.564,35.633,15.307,35.644z M15.306,39.597
	c0,0.96,0,1.922,0,2.883c-0.742-0.016-1.486-0.037-2.228-0.064c0-0.959,0-1.916,0.001-2.877
	C13.82,39.564,14.563,39.585,15.306,39.597z M19.637,39.597c0.742-0.012,1.484-0.033,2.227-0.059c0,0.959,0,1.918,0,2.875
	c-0.741,0.029-1.483,0.052-2.227,0.064C19.637,41.519,19.637,40.559,19.637,39.597z M19.637,38.527c0-0.961,0-1.924,0-2.883
	c0.74-0.012,1.482-0.027,2.225-0.05c0,0.959,0,1.918,0.002,2.876C21.121,38.496,20.377,38.515,19.637,38.527z M19.637,34.572
	c0-0.961,0-1.922-0.002-2.883c0.741-0.01,1.483-0.021,2.225-0.039c0.002,0.957,0.002,1.916,0.002,2.875
	C21.119,34.547,20.376,34.564,19.637,34.572z M19.635,30.619c0-0.963,0-1.924,0-2.885c0.74-0.006,1.483-0.017,2.225-0.029
	c0,0.959,0,1.916,0,2.875C21.118,30.599,20.376,30.609,19.635,30.619z M19.633,26.666c0-0.955,0-1.909,0-2.864
	c0.741-0.005,1.483-0.013,2.227-0.021c0,0.951,0,1.903,0,2.856C21.118,26.65,20.375,26.66,19.633,26.666z M19.633,22.732
	c-0.001-0.963-0.001-1.924-0.001-2.885c0.741-0.002,1.483-0.006,2.226-0.012c0,0.959,0.002,1.918,0.002,2.877
	C21.116,22.72,20.374,22.728,19.633,22.732z M18.586,22.736c-0.744,0.002-1.487,0.002-2.23,0c0-0.963,0-1.924,0-2.887
	c0.743,0.002,1.487,0.002,2.23,0C18.586,20.813,18.586,21.773,18.586,22.736z M15.309,22.732c-0.742-0.004-1.483-0.012-2.226-0.02
	c0-0.959,0.001-1.918,0.001-2.877c0.742,0.006,1.484,0.01,2.226,0.012C15.31,20.808,15.309,21.769,15.309,22.732z M15.309,23.801
	c0,0.955,0,1.91,0,2.864c-0.742-0.006-1.483-0.016-2.227-0.027c0-0.953,0-1.906,0-2.859C13.825,23.789,14.566,23.796,15.309,23.801z
	 M12.036,26.617c-0.742-0.017-1.483-0.033-2.225-0.055c0-0.947,0-1.895,0.001-2.841c0.741,0.019,1.483,0.031,2.225,0.042
	C12.037,24.716,12.036,25.666,12.036,26.617z M12.035,27.683c0,0.957,0,1.916,0,2.873c-0.742-0.021-1.483-0.047-2.225-0.076
	c0-0.953,0-1.904,0-2.857C10.552,27.646,11.293,27.667,12.035,27.683z M12.035,31.621c0,0.957-0.001,1.914-0.001,2.871
	c-0.742-0.023-1.483-0.055-2.224-0.092c0-0.953,0-1.906,0-2.859C10.551,31.572,11.292,31.6,12.035,31.621z M12.033,35.56
	c0,0.956-0.001,1.914-0.001,2.871c-0.742-0.031-1.484-0.066-2.225-0.111c0-0.953,0.001-1.906,0.001-2.858
	C10.549,35.5,11.291,35.533,12.033,35.56z M12.031,39.498c0,0.955,0,1.914-0.001,2.869c-0.742-0.035-1.484-0.078-2.225-0.129
	c0-0.953,0-1.904,0.001-2.857C10.547,39.426,11.289,39.465,12.031,39.498z M12.03,43.435c0,0.951-0.001,1.901-0.001,2.854
	c-0.742-0.041-1.484-0.09-2.225-0.149c0-0.944,0.001-1.892,0.001-2.838C10.546,43.353,11.288,43.4,12.03,43.435z M13.077,43.482
	c0.743,0.031,1.486,0.053,2.228,0.067c0,0.956,0,1.91,0,2.864c-0.742-0.016-1.486-0.041-2.229-0.074
	C13.077,45.389,13.077,44.435,13.077,43.482z M15.305,47.486c0,0.961,0,1.922,0,2.883c-0.743-0.019-1.487-0.047-2.23-0.084
	c0-0.959,0-1.918,0.001-2.875C13.818,47.443,14.562,47.468,15.305,47.486z M16.353,47.504c0.745,0.009,1.49,0.009,2.234,0
	c0.001,0.96,0.001,1.924,0.001,2.883c-0.745,0.011-1.49,0.011-2.235,0C16.353,49.427,16.353,48.464,16.353,47.504z M19.639,47.486
	c0.741-0.018,1.483-0.043,2.227-0.076c0,0.957,0.002,1.916,0.002,2.875c-0.742,0.037-1.486,0.065-2.229,0.084
	C19.639,49.406,19.639,48.447,19.639,47.486z M19.637,46.414c0-0.954,0-1.908,0-2.864c0.742-0.015,1.484-0.036,2.229-0.067
	c0,0.953,0,1.905,0,2.857C21.122,46.373,20.379,46.398,19.637,46.414z M22.911,43.435c0.741-0.035,1.483-0.082,2.224-0.135
	c0,0.945,0,1.895,0.002,2.838c-0.74,0.059-1.482,0.107-2.226,0.15C22.911,45.336,22.911,44.386,22.911,43.435z M22.911,42.369
	c-0.001-0.957-0.001-1.914-0.002-2.871c0.741-0.032,1.483-0.069,2.225-0.117c0,0.954,0.001,1.906,0.001,2.857
	C24.395,42.289,23.652,42.333,22.911,42.369z M22.909,38.431c0-0.957-0.001-1.915-0.001-2.871c0.742-0.027,1.482-0.061,2.224-0.098
	c0.001,0.951,0.001,1.904,0.001,2.857C24.393,38.363,23.65,38.4,22.909,38.431z M22.908,34.494c0-0.957-0.002-1.916-0.002-2.871
	c0.742-0.021,1.482-0.051,2.225-0.079c0,0.952,0,1.903,0.001,2.856C24.391,34.437,23.648,34.468,22.908,34.494z M22.906,30.556
	c0-0.957,0-1.916-0.002-2.873c0.742-0.016,1.484-0.037,2.226-0.061c0,0.953,0.001,1.904,0.001,2.857
	C24.391,30.509,23.648,30.535,22.906,30.556z M22.904,26.617c0-0.951,0-1.901,0-2.854c0.74-0.011,1.482-0.025,2.224-0.042
	c0,0.946,0.001,1.894,0.001,2.841C24.389,26.583,23.646,26.601,22.904,26.617z M22.902,22.699c0-0.957,0-1.916,0-2.874
	c0.742-0.007,1.482-0.014,2.225-0.023c0.001,0.953,0.001,1.906,0.001,2.859C24.387,22.676,23.646,22.689,22.902,22.699z
	 M22.902,18.76C22.9,17.802,22.9,16.845,22.9,15.887c0.742,0,1.481-0.003,2.225-0.004c0.001,0.953,0.001,1.906,0.002,2.858
	C24.385,18.75,23.643,18.756,22.902,18.76z M21.855,18.767c-0.742,0.004-1.482,0.007-2.225,0.009c0-0.961,0-1.922,0-2.884
	c0.741,0,1.482-0.001,2.225-0.002C21.855,16.849,21.855,17.808,21.855,18.767z M18.585,18.779c-0.743,0.001-1.486,0.001-2.229,0
	c0-0.961,0-1.923,0-2.885c0.742,0,1.486,0,2.229,0C18.585,16.855,18.585,17.817,18.585,18.779z M15.31,18.777
	c-0.742-0.002-1.483-0.005-2.225-0.009c0-0.959,0-1.918,0-2.877c0.742,0,1.483,0.001,2.225,0.002
	C15.31,16.854,15.31,17.815,15.31,18.777z M12.039,18.76c-0.742-0.005-1.483-0.011-2.225-0.019c0-0.953,0-1.905,0.001-2.858
	c0.742,0.001,1.483,0.004,2.224,0.004C12.039,16.845,12.039,17.803,12.039,18.76z M12.039,19.827c0,0.957-0.001,1.915-0.001,2.872
	c-0.741-0.01-1.483-0.021-2.224-0.035c0-0.953,0-1.906,0-2.859C10.555,19.813,11.296,19.819,12.039,19.827z M8.768,22.64
	c-0.741-0.018-1.482-0.035-2.223-0.057c0-0.943,0-1.887,0-2.831c0.741,0.013,1.482,0.025,2.223,0.036
	C8.768,20.739,8.768,21.689,8.768,22.64z M8.767,23.697c0,0.944,0,1.89,0,2.832c-0.741-0.024-1.482-0.053-2.223-0.084
	c0-0.938,0-1.873,0-2.811C7.284,23.658,8.026,23.679,8.767,23.697z M8.766,27.587c0,0.949-0.001,1.898-0.001,2.85
	c-0.74-0.033-1.481-0.068-2.222-0.111c0-0.942,0-1.887,0-2.83C7.284,27.529,8.025,27.56,8.766,27.587z M8.765,31.494
	c0,0.951-0.001,1.9-0.001,2.852c-0.74-0.04-1.481-0.087-2.221-0.139c0-0.943,0-1.887,0-2.831C7.283,31.42,8.023,31.459,8.765,31.494
	z M8.763,35.404c0,0.949,0,1.899,0,2.851c-0.741-0.052-1.481-0.104-2.22-0.168c0-0.942,0-1.886,0-2.829
	C7.282,35.31,8.022,35.361,8.763,35.404z M8.762,39.312c0,0.949,0,1.899-0.001,2.852c-0.741-0.059-1.48-0.123-2.219-0.195
	c0-0.943,0-1.889,0-2.83C7.281,39.203,8.021,39.26,8.762,39.312z M8.76,43.219c0,0.944,0,1.888-0.001,2.832
	c-0.74-0.065-1.479-0.14-2.218-0.224c0-0.938,0-1.875,0-2.812C7.281,43.092,8.02,43.16,8.76,43.219z M8.759,47.109
	c0,0.951,0,1.9,0,2.851c-0.741-0.073-1.48-0.158-2.219-0.253c0-0.942,0-1.887,0-2.828C7.279,46.964,8.019,47.039,8.759,47.109z
	 M9.804,47.201c0.741,0.06,1.483,0.111,2.224,0.154c0,0.955,0,1.912,0,2.868c-0.742-0.045-1.484-0.103-2.225-0.166
	C9.804,49.107,9.804,48.154,9.804,47.201z M12.027,51.291c0,0.957,0,1.916,0,2.873c-0.742-0.053-1.484-0.114-2.225-0.188
	c0-0.951,0.001-1.904,0.001-2.857C10.544,51.187,11.285,51.244,12.027,51.291z M13.075,51.353c0.743,0.039,1.486,0.067,2.229,0.086
	c0,0.961,0,1.922,0,2.885c-0.743-0.021-1.487-0.053-2.229-0.094C13.075,53.269,13.075,52.312,13.075,51.353z M16.353,51.459
	c0.745,0.009,1.49,0.009,2.235,0c0,0.961,0,1.924,0,2.885c-0.745,0.013-1.491,0.013-2.235,0
	C16.353,53.382,16.353,52.42,16.353,51.459z M19.639,51.439c0.741-0.019,1.485-0.049,2.229-0.086c0,0.959,0,1.92,0.001,2.877
	c-0.743,0.041-1.485,0.072-2.229,0.094C19.639,53.361,19.639,52.4,19.639,51.439z M22.913,51.291
	c0.743-0.047,1.483-0.104,2.226-0.172c0,0.953,0,1.906,0,2.857c-0.74,0.073-1.481,0.135-2.224,0.188
	C22.914,53.205,22.914,52.248,22.913,51.291z M22.913,50.224c-0.001-0.956-0.001-1.912-0.001-2.869
	c0.742-0.043,1.484-0.095,2.225-0.154c0,0.953,0,1.906,0.002,2.857C24.396,50.123,23.654,50.179,22.913,50.224z M26.184,47.109
	c0.739-0.066,1.479-0.145,2.217-0.229c0,0.942,0,1.887,0,2.83c-0.736,0.092-1.478,0.177-2.217,0.252
	C26.184,49.009,26.184,48.06,26.184,47.109z M26.184,46.051c-0.002-0.944-0.002-1.888-0.002-2.832
	c0.739-0.06,1.48-0.127,2.219-0.202c0,0.938,0,1.873,0,2.811C27.662,45.912,26.923,45.986,26.184,46.051z M26.182,42.162
	c0-0.95-0.002-1.9-0.002-2.85c0.74-0.052,1.48-0.109,2.219-0.176c0.002,0.943,0.002,1.887,0.002,2.83
	C27.662,42.039,26.921,42.105,26.182,42.162z M26.18,38.253c0-0.95,0-1.9-0.002-2.852c0.742-0.041,1.482-0.093,2.221-0.146
	c0,0.942,0,1.887,0,2.829C27.66,38.15,26.92,38.203,26.18,38.253z M26.178,34.345c0-0.949,0-1.898,0-2.852
	c0.74-0.034,1.481-0.073,2.221-0.117c0,0.943,0,1.887,0,2.83C27.659,34.258,26.918,34.305,26.178,34.345z M26.177,30.437
	c0-0.949,0-1.9-0.001-2.85c0.741-0.027,1.481-0.059,2.221-0.092c0,0.943,0.002,1.888,0.002,2.83
	C27.659,30.367,26.918,30.404,26.177,30.437z M26.176,26.529c-0.001-0.942-0.001-1.888-0.001-2.832
	c0.742-0.018,1.482-0.039,2.222-0.063c0,0.938,0,1.873,0,2.811C27.657,26.476,26.917,26.503,26.176,26.529z M26.174,22.64
	c0-0.951-0.001-1.901-0.001-2.851c0.741-0.01,1.483-0.022,2.224-0.035c0,0.943,0,1.886,0,2.831
	C27.657,22.605,26.915,22.623,26.174,22.64z M8.769,15.881c0,0.95,0,1.9-0.001,2.85c-0.741-0.008-1.482-0.018-2.223-0.028
	c0-0.943,0-1.887,0-2.83C7.286,15.876,8.028,15.878,8.769,15.881z M6.54,50.758c0.738,0.097,1.478,0.183,2.218,0.258
	c0,0.95,0,1.901,0,2.853c-0.741-0.084-1.48-0.178-2.218-0.28C6.54,52.646,6.54,51.701,6.54,50.758z M26.184,53.869
	c0-0.95,0-1.899,0-2.853c0.739-0.075,1.479-0.163,2.217-0.259c0.002,0.941,0.002,1.889,0.002,2.83
	C27.663,53.693,26.925,53.785,26.184,53.869z"/&gt;
&lt;path id="highlight_2_" opacity="0.17" fill="#FFFFFF" enable-background="new    " d="M0,0.943h5.497c0,0,6.847-0.943,11.974-0.943
	C22.6,0,29.48,0.943,29.48,0.943h5.496v41.951c0,0-12.076-0.521-18.623-2.548C9.807,38.32,0,30.557,0,30.557V0.943z"/&gt;
&lt;/svg&gt;
</y:Resource>
      <y:Resource id="4" xml:space="preserve">&lt;?xml version="1.0" encoding="utf-8"?&gt;
&lt;svg version="1.1"
	 xmlns="http://www.w3.org/2000/svg" xmlns:xlink="http://www.w3.org/1999/xlink"
	 x="0px" y="0px" width="65px" height="53px" viewBox="-0.811 -0.063 65 53" enable-background="new -0.811 -0.063 65 53"
	 xml:space="preserve"&gt;
&lt;defs&gt;
&lt;/defs&gt;
&lt;linearGradient id="SVGID_1_" gradientUnits="userSpaceOnUse" x1="220.9624" y1="824.415" x2="220.9624" y2="801.0922" gradientTransform="matrix(1 0 0 1 -195.2002 -770.8008)"&gt;
	&lt;stop  offset="0.0319" style="stop-color:#808080"/&gt;
	&lt;stop  offset="0.1229" style="stop-color:#939393"/&gt;
	&lt;stop  offset="0.2702" style="stop-color:#ABABAB"/&gt;
	&lt;stop  offset="0.4266" style="stop-color:#BCBCBC"/&gt;
	&lt;stop  offset="0.5968" style="stop-color:#C6C6C6"/&gt;
	&lt;stop  offset="0.8061" style="stop-color:#C9C9C9"/&gt;
&lt;/linearGradient&gt;
&lt;path fill="url(#SVGID_1_)" d="M51.333,51.918c0.195,0.459-0.053,0.836-0.553,0.836H0.58c-0.5,0-0.604-0.272-0.232-0.605
	l8.023-7.191c0.373-0.334,1.086-0.605,1.586-0.605h37.255c0.498,0,1.065,0.377,1.265,0.836L51.333,51.918z"/&gt;
&lt;path fill="none" stroke="#8D8D8D" stroke-width="0.25" stroke-linecap="round" stroke-linejoin="round" stroke-miterlimit="10" d="
	M51.333,51.918c0.195,0.459-0.053,0.836-0.553,0.836H0.58c-0.5,0-0.604-0.272-0.232-0.605l8.023-7.191
	c0.373-0.334,1.086-0.605,1.586-0.605h37.255c0.498,0,1.065,0.377,1.265,0.836L51.333,51.918z"/&gt;
&lt;path fill="#717171" d="M32.117,50.571c0,0.25-0.205,0.454-0.455,0.454H4.024c-0.25,0-0.304-0.139-0.119-0.307l5.638-5.154
	c0.184-0.17,0.539-0.309,0.789-0.309h21.332c0.25,0,0.454,0.205,0.454,0.455L32.117,50.571L32.117,50.571z"/&gt;
&lt;path fill="#717171" d="M40.738,50.598c0.086,0.236,0.359,0.428,0.609,0.428h7.465c0.25,0,0.375-0.188,0.279-0.42l-2.049-4.93
	c-0.098-0.229-0.379-0.42-0.629-0.42h-7.17c-0.25,0-0.386,0.191-0.301,0.428L40.738,50.598z"/&gt;
&lt;path fill="#717171" d="M32.89,50.571c0,0.25,0.205,0.454,0.455,0.454h6.135c0.25,0,0.382-0.189,0.293-0.426l-0.156-0.409
	c-0.089-0.233-0.365-0.421-0.615-0.416l-1.045,0.021c-0.25,0.004-0.509-0.189-0.574-0.432l-0.021-0.082
	c-0.065-0.242-0.321-0.439-0.571-0.439h-1.316c-0.25,0-0.444,0.205-0.432,0.453l0.002,0.059c0.016,0.25-0.181,0.455-0.431,0.459
	l-1.269,0.021c-0.25,0.006-0.454,0.211-0.454,0.461L32.89,50.571L32.89,50.571z"/&gt;
&lt;path fill="#717171" d="M32.89,47.004c0,0.25,0.205,0.455,0.455,0.455h4.845c0.25,0,0.396-0.195,0.323-0.437l-0.402-1.333
	c-0.07-0.238-0.335-0.438-0.585-0.438h-4.181c-0.25,0-0.455,0.205-0.455,0.455V47.004z"/&gt;
&lt;linearGradient id="SVGID_2_" gradientUnits="userSpaceOnUse" x1="535.2017" y1="-1418.6563" x2="511.4634" y2="-1418.6563" gradientTransform="matrix(1 0 0 -1 -488 -1376.627)"&gt;
	&lt;stop  offset="0" style="stop-color:#4D4D4D"/&gt;
	&lt;stop  offset="1" style="stop-color:#999999"/&gt;
&lt;/linearGradient&gt;
&lt;path fill="url(#SVGID_2_)" d="M47.048,40.514c0,0.965-6.758,1.404-12.371,1.404c-3.889,0-10.914-0.348-11.367-1.267
	c0,0.446,0,1.502,0,1.661c0,0.725,4.803,1.234,11.357,1.234c6.554,0,12.381-0.643,12.381-1.361
	C47.048,42.028,47.048,40.977,47.048,40.514z"/&gt;
&lt;path fill="#808080" d="M35.179,39.307c6.556,0,11.869,0.584,11.869,1.307c0,0.721-5.313,1.42-11.869,1.42
	c-6.701,0-11.869-0.697-11.869-1.42S28.625,39.307,35.179,39.307z"/&gt;
&lt;linearGradient id="SVGID_3_" gradientUnits="userSpaceOnUse" x1="525.7661" y1="-1412.6865" x2="520.77" y2="-1412.6865" gradientTransform="matrix(1 0 0 -1 -488 -1376.627)"&gt;
	&lt;stop  offset="0" style="stop-color:#999999"/&gt;
	&lt;stop  offset="0.0417" style="stop-color:#8D8D8D"/&gt;
	&lt;stop  offset="0.1617" style="stop-color:#717171"/&gt;
	&lt;stop  offset="0.2821" style="stop-color:#5D5D5D"/&gt;
	&lt;stop  offset="0.4021" style="stop-color:#515151"/&gt;
	&lt;stop  offset="0.5212" style="stop-color:#4D4D4D"/&gt;
	&lt;stop  offset="0.6202" style="stop-color:#565656"/&gt;
	&lt;stop  offset="0.7817" style="stop-color:#6E6E6E"/&gt;
	&lt;stop  offset="0.9844" style="stop-color:#969696"/&gt;
	&lt;stop  offset="1" style="stop-color:#999999"/&gt;
&lt;/linearGradient&gt;
&lt;path fill="url(#SVGID_3_)" d="M37.734,40.896c0,0-1.477,0.096-2.498,0.096s-2.499-0.096-2.499-0.096v-9.768h4.997V40.896z"/&gt;
&lt;radialGradient id="SVGID_4_" cx="415.8687" cy="-1386.5146" r="24.0778" gradientTransform="matrix(1.15 0 0 -1 -453.4719 -1376.627)" gradientUnits="userSpaceOnUse"&gt;
	&lt;stop  offset="0" style="stop-color:#F2F2F2"/&gt;
	&lt;stop  offset="1" style="stop-color:#666666"/&gt;
&lt;/radialGradient&gt;
&lt;path fill="url(#SVGID_4_)" d="M9.453,2.122c0-1.1,0.9-2,2-2h48.246c1.1,0,2,0.9,2,2v30.073c0,1.101-0.9,2-2,2H11.453
	c-1.1,0-2-0.899-2-2V2.122z"/&gt;
&lt;path fill="none" stroke="#666666" stroke-width="0.2436" stroke-linecap="round" stroke-linejoin="round" stroke-miterlimit="10" d="
	M9.453,2.122c0-1.1,0.9-2,2-2h48.246c1.1,0,2,0.9,2,2v30.073c0,1.101-0.9,2-2,2H11.453c-1.1,0-2-0.899-2-2V2.122z"/&gt;
&lt;radialGradient id="SVGID_5_" cx="402.1509" cy="-1378.3662" r="53.3339" fx="444.1083" fy="-1385.5538" gradientTransform="matrix(1.1935 0 0 -1 -443.5655 -1376.627)" gradientUnits="userSpaceOnUse"&gt;
	&lt;stop  offset="0" style="stop-color:#4D4D4D"/&gt;
	&lt;stop  offset="1" style="stop-color:#999999"/&gt;
&lt;/radialGradient&gt;
&lt;path fill="url(#SVGID_5_)" d="M10.475,3.143c0-1.1,0.9-2,2-2h46.429c1.1,0,2,0.9,2,2v27.805c0,1.1-0.9,2-2,2H12.475
	c-1.1,0-2-0.9-2-2V3.143z"/&gt;
&lt;radialGradient id="SVGID_6_" cx="402.939" cy="-1378.4502" r="34.1874" gradientTransform="matrix(1.1923 0 0 -1 -443.8286 -1376.627)" gradientUnits="userSpaceOnUse"&gt;
	&lt;stop  offset="0" style="stop-color:#9CD7FF"/&gt;
	&lt;stop  offset="1" style="stop-color:#3C89C9"/&gt;
&lt;/radialGradient&gt;
&lt;path fill="url(#SVGID_6_)" d="M11.043,3.598c0-1.1,0.9-2,2-2h45.294c1.1,0,2,0.9,2,2v26.895c0,1.1-0.9,2-2,2H13.043
	c-1.1,0-2-0.9-2-2V3.598z"/&gt;
&lt;path opacity="0.24" fill="#F2F2F2" d="M11.043,24.936V3.598c0-1.1,0.9-2,2-2h45.294c1.1,0,2,0.9,2,2v13.539l-23.164,4.94
	c-1.064,0.273-2.836,0.547-3.935,0.609L11.043,24.936z"/&gt;
&lt;path fill="#C9C9C9" d="M58.777,46.596c-0.003-0.002-0.005-0.002-0.007,0c-0.188-0.061-0.429-0.254-0.702-0.482
	C58.335,46.268,58.578,46.436,58.777,46.596z"/&gt;
&lt;radialGradient id="SVGID_7_" cx="450.8638" cy="1259.1514" r="6.3766" gradientTransform="matrix(1 0 0 1 -390.4004 -1211.6016)" gradientUnits="userSpaceOnUse"&gt;
	&lt;stop  offset="0.1939" style="stop-color:#C9C9C9"/&gt;
	&lt;stop  offset="0.3299" style="stop-color:#C6C6C6"/&gt;
	&lt;stop  offset="0.4405" style="stop-color:#BCBCBC"/&gt;
	&lt;stop  offset="0.5421" style="stop-color:#ABABAB"/&gt;
	&lt;stop  offset="0.6378" style="stop-color:#939393"/&gt;
	&lt;stop  offset="0.697" style="stop-color:#808080"/&gt;
&lt;/radialGradient&gt;
&lt;path fill="url(#SVGID_7_)" d="M58.77,46.596c0.005,0.002,0.007,0.002,0.009,0.002c0.002,0.004,0.006,0.004,0.006,0.004
	c0.084,0.023,0.153,0.021,0.213-0.021c0.017-0.008,0.026-0.021,0.037-0.041c0.604-0.119,1.329-0.154,2.197-0.086
	c2.032,1.545,3.77,4.625,1.18,5.801c-2.048,0.929-3.543,0.783-4.722-0.485c-0.624-0.675-1.239-1.47-1.729-2.265
	C56.226,48.369,56.855,47.061,58.77,46.596z"/&gt;
&lt;radialGradient id="SVGID_8_" cx="603.5698" cy="1426.6348" r="3.8245" gradientTransform="matrix(0.9761 0.2173 -0.1478 0.6641 -320.0412 -1031.1759)" gradientUnits="userSpaceOnUse"&gt;
	&lt;stop  offset="0.1939" style="stop-color:#C9C9C9"/&gt;
	&lt;stop  offset="0.3739" style="stop-color:#C6C6C6"/&gt;
	&lt;stop  offset="0.5203" style="stop-color:#BCBCBC"/&gt;
	&lt;stop  offset="0.6549" style="stop-color:#ABABAB"/&gt;
	&lt;stop  offset="0.7816" style="stop-color:#939494"/&gt;
	&lt;stop  offset="0.8364" style="stop-color:#868787"/&gt;
&lt;/radialGradient&gt;
&lt;path fill="url(#SVGID_8_)" d="M55.96,49.504c-0.893-1.438-1.355-2.869-0.664-3.533c0.244-0.236,0.539-0.422,0.863-0.559
	c0.6,0.051,1.307,0.346,1.9,0.691c0.002,0,0.005,0.004,0.007,0.006c0.272,0.229,0.519,0.426,0.702,0.482
	C56.855,47.061,56.226,48.369,55.96,49.504z"/&gt;
&lt;radialGradient id="SVGID_9_" cx="448.7241" cy="1259.3271" r="3.928" gradientTransform="matrix(1 0 0 1 -390.4004 -1211.6016)" gradientUnits="userSpaceOnUse"&gt;
	&lt;stop  offset="0.1939" style="stop-color:#C9C9C9"/&gt;
	&lt;stop  offset="0.3496" style="stop-color:#C6C6C6"/&gt;
	&lt;stop  offset="0.4761" style="stop-color:#BCBCBC"/&gt;
	&lt;stop  offset="0.5925" style="stop-color:#ABABAB"/&gt;
	&lt;stop  offset="0.702" style="stop-color:#939393"/&gt;
	&lt;stop  offset="0.7697" style="stop-color:#808080"/&gt;
&lt;/radialGradient&gt;
&lt;path fill="url(#SVGID_9_)" d="M56.16,45.414c1.353-0.564,3.287-0.266,4.963,0.955c0.035,0.025,0.073,0.055,0.109,0.084
	c-0.867-0.068-1.818-0.033-2.427,0.086c-0.109-0.105-0.763-0.449-0.744-0.434C57.464,45.758,56.757,45.463,56.16,45.414z"/&gt;
&lt;path fill="none" stroke="#717171" stroke-width="0.1136" stroke-linecap="round" stroke-miterlimit="10" d="M56.16,45.414
	c1.353-0.564,3.287-0.266,4.963,0.955c0.035,0.025,0.073,0.055,0.109,0.084c2.032,1.545,3.77,4.627,1.18,5.801
	c-2.048,0.93-3.543,0.785-4.722-0.484c-0.624-0.676-1.239-1.471-1.729-2.264c-0.892-1.438-1.354-2.871-0.664-3.533
	C55.541,45.734,55.835,45.549,56.16,45.414z"/&gt;
&lt;path fill="none" stroke="#717171" stroke-width="0.1136" stroke-linecap="round" stroke-miterlimit="10" d="M58.777,46.596
	c0.083-0.021,0.168-0.041,0.258-0.057c0.604-0.119,1.329-0.154,2.197-0.086"/&gt;
&lt;path fill="none" stroke="#717171" stroke-width="0.1136" stroke-linecap="round" stroke-miterlimit="10" d="M55.958,49.516
	c0-0.002,0.002-0.008,0.002-0.012c0.269-1.135,0.896-2.441,2.813-2.908"/&gt;
&lt;path fill="none" stroke="#717171" stroke-width="0.1136" stroke-linecap="round" stroke-miterlimit="10" d="M58.061,46.105
	c-0.597-0.35-1.306-0.643-1.901-0.693"/&gt;
&lt;path fill="none" stroke="#717171" stroke-width="0.1136" stroke-linecap="round" stroke-miterlimit="10" d="M58.779,46.598
	c0-0.002,0-0.002-0.002-0.002c-0.199-0.16-0.441-0.328-0.709-0.482"/&gt;
&lt;path fill="#4D4D4D" d="M58.259,45.936c0.354,0.264,0.438,0.48,0.548,0.604c-0.091,0.018-0.173,0.033-0.259,0.059
	c-0.355-0.393-0.996-0.666-0.955-0.727C57.688,45.729,58.063,45.791,58.259,45.936z"/&gt;
&lt;/svg&gt;
</y:Resource>
      <y:Resource id="5" xml:space="preserve">&lt;?xml version="1.0" encoding="utf-8"?&gt;
&lt;svg version="1.1" id="Ebene_1" xmlns="http://www.w3.org/2000/svg" xmlns:xlink="http://www.w3.org/1999/xlink" x="0px" y="0px"
	 width="57px" height="63px" viewBox="0 0 57 63" enable-background="new 0 0 57 63" xml:space="preserve"&gt;
&lt;g&gt;
	
		&lt;linearGradient id="SVGID_1_" gradientUnits="userSpaceOnUse" x1="26.5" y1="1570.3457" x2="27.741" y2="1600.1431" gradientTransform="matrix(1 0 0 1 0.1602 -1546.3828)"&gt;
		&lt;stop  offset="0.2711" style="stop-color:#FFAB4F"/&gt;
		&lt;stop  offset="1" style="stop-color:#FFD28F"/&gt;
	&lt;/linearGradient&gt;
	&lt;path fill="url(#SVGID_1_)" stroke="#ED9135" stroke-miterlimit="10" d="M49.529,51.225c-4.396-4.396-10.951-5.884-12.063-6.109
		V37.8H19.278c0,0,0.038,6.903,0,6.868c0,0-6.874,0.997-12.308,6.432C1.378,56.691,0.5,62.77,0.5,62.77
		c0,1.938,1.575,3.492,3.523,3.492h48.51c1.947,0,3.521-1.558,3.521-3.492C56.055,62.768,54.211,55.906,49.529,51.225z"/&gt;
	
		&lt;radialGradient id="face_x5F_white_1_" cx="27.7427" cy="1572.1094" r="23.4243" fx="23.1732" fy="1569.6195" gradientTransform="matrix(1 0 0 1 0.1602 -1546.3828)" gradientUnits="userSpaceOnUse"&gt;
		&lt;stop  offset="0" style="stop-color:#FFD28F"/&gt;
		&lt;stop  offset="1" style="stop-color:#FFAB4F"/&gt;
	&lt;/radialGradient&gt;
	&lt;path id="face_x5F_white_3_" fill="url(#face_x5F_white_1_)" stroke="#ED9135" stroke-miterlimit="10" d="M43.676,23.357
		c0.086,10.2-6.738,18.52-15.247,18.586c-8.502,0.068-15.466-8.146-15.552-18.344C12.794,13.4,19.618,5.079,28.123,5.012
		C36.627,4.945,43.59,13.158,43.676,23.357z"/&gt;
	
		&lt;linearGradient id="face_highlight_1_" gradientUnits="userSpaceOnUse" x1="3646.5117" y1="-6644.2471" x2="3670.1414" y2="-6737.6978" gradientTransform="matrix(0.275 0 0 -0.2733 -977.2951 -1807.6279)"&gt;
		&lt;stop  offset="0" style="stop-color:#FFFFFF;stop-opacity:0.24"/&gt;
		&lt;stop  offset="1" style="stop-color:#FFFFFF;stop-opacity:0.16"/&gt;
	&lt;/linearGradient&gt;
	&lt;path id="face_highlight_3_" fill="url(#face_highlight_1_)" d="M27.958,6.333c-6.035,0.047-10.747,4.493-12.787,10.386
		c-0.664,1.919-0.294,4.043,0.98,5.629c2.73,3.398,5.729,6.283,9.461,8.088c3.137,1.518,7.535,2.384,11.893,1.247
		c2.274-0.592,3.988-2.459,4.375-4.766c0.183-1.094,0.293-2.289,0.283-3.553C42.083,13.952,36.271,6.268,27.958,6.333z"/&gt;
	&lt;path fill="#656565" stroke="#4B4B4B" stroke-linejoin="round" stroke-miterlimit="10" d="M15.038,26.653
		c0.145,2.05,3.468,2.593,6.477,2.56c2.298-0.026,3.25-0.889,4.746-2.685c2.539-3.05-0.767-3.715-4.817-3.67
		C15.984,22.919,14.777,22.933,15.038,26.653z"/&gt;
	&lt;path fill="#656565" stroke="#4B4B4B" stroke-linejoin="round" stroke-miterlimit="10" d="M41.116,26.653
		c-0.146,2.05-3.47,2.593-6.478,2.56c-2.299-0.026-3.252-0.889-4.746-2.685c-2.538-3.05,0.769-3.715,4.816-3.67
		C40.17,22.919,41.377,22.933,41.116,26.653z"/&gt;
	&lt;path fill="none" stroke="#4B4B4B" stroke-linecap="round" stroke-linejoin="round" stroke-miterlimit="10" d="M27.453,24.375
		c0,0,0.604-0.469,1.305,0"/&gt;
	
		&lt;line fill="none" stroke="#4B4B4B" stroke-linecap="round" stroke-miterlimit="10" x1="41.727" y1="24.592" x2="41.844" y2="25.375"/&gt;
	
		&lt;line fill="none" stroke="#4B4B4B" stroke-linecap="round" stroke-miterlimit="10" x1="42.165" y1="24.938" x2="44.027" y2="24.938"/&gt;
	
		&lt;line fill="none" stroke="#4B4B4B" stroke-linecap="round" stroke-miterlimit="10" x1="14.374" y1="24.592" x2="14.257" y2="25.375"/&gt;
	
		&lt;line fill="none" stroke="#4B4B4B" stroke-linecap="round" stroke-miterlimit="10" x1="13.937" y1="24.938" x2="12.073" y2="24.938"/&gt;
	&lt;path id="body_9_" fill="#9B9B9B" stroke="#4B4B4B" stroke-linecap="round" stroke-linejoin="round" stroke-miterlimit="10" d="
		M0.5,62.768c0,1.938,1.575,3.494,3.523,3.494h48.51c1.947,0,3.521-1.559,3.521-3.494c0,0-1.844-6.861-6.525-11.543
		c-4.815-4.813-11.244-6.146-11.244-6.146c-1.771,1.655-5.61,2.802-10.063,2.802c-4.453,0-8.292-1.146-10.063-2.802
		c0,0-5.755,0.586-11.189,6.021C1.378,56.689,0.5,62.768,0.5,62.768z"/&gt;
	
		&lt;path id="turtleneck_6_" fill="#9B9B9B" stroke="#4B4B4B" stroke-linecap="round" stroke-linejoin="round" stroke-miterlimit="10" d="
		M39.715,44.786l-1.557-3.405c0,0-0.574,2.369-3.012,4.441c-2.109,1.795-6.785,2.072-6.785,2.072s-4.753-0.356-6.722-2.031
		c-2.436-2.072-3.012-4.441-3.012-4.441l-1.555,3.404c0,0-0.552,1.404,1.37,3.479c1.025,1.105,5.203,3.611,9.682,3.582
		c4.479-0.029,9.264-2.594,10.218-3.623C40.266,46.191,39.715,44.786,39.715,44.786z"/&gt;
	&lt;path fill="#656565" stroke="#4B4B4B" stroke-linecap="round" stroke-linejoin="round" stroke-miterlimit="10" d="M49.529,51.225
		c-1.094-1.094-2.319-2.006-3.563-2.766c0.193,0.346,0.401,0.68,0.574,1.041c-4.906,6.014-15.921,9.289-21.743,16.709
		c1.969-7.594-11.166-13.127-14.493-16.926c-0.158-0.182-0.258-0.422-0.332-0.686c-1.015,0.707-2.031,1.525-3.001,2.5
		c-5.592,5.592-6.47,11.67-6.47,11.67c0,1.936,1.575,3.489,3.523,3.489h48.51c1.948,0,3.521-1.558,3.521-3.489
		C56.055,62.768,54.211,55.906,49.529,51.225z"/&gt;
	&lt;path fill="#656565" stroke="#4B4B4B" stroke-linejoin="round" stroke-miterlimit="10" d="M3.007,32.205
		c1.521,2.295,10.771,12.17,10.771,12.17s-5.137,3.012-3.474,4.908c3.327,3.799,10.533,14.018,14.865,16.467
		c2.499-4.6-3.906-23.327-5.724-25.833c-1.296-1.786-3.22-3.269-4.598-5.417C14.846,34.5,9.195,34.5,3.007,32.205z"/&gt;
	&lt;path fill="#656565" stroke="#4B4B4B" stroke-linecap="round" stroke-linejoin="round" stroke-miterlimit="10" d="M52.277,32.205
		c-4.791,3.299-10.368,10.391-11.074,11.066c2.313,1.744,4.9,3.799,6.146,6.406c-4.906,6.014-14.766,9.277-21.747,16.069
		c2.015-7.771,5.157-20.46,12.517-27.083c1.667-1.5,2.713-2.833,4.043-5.391C42.165,33.275,45.637,33.25,52.277,32.205z"/&gt;
	&lt;path id="wh2_1_" fill="#9B9B9B" stroke="#4B4B4B" stroke-linecap="round" stroke-linejoin="round" stroke-miterlimit="10" d="
		M28.276,15.5c5.635,0,10.826,1.416,14.979,3.794c-1.614-8.228-7.794-14.34-15.132-14.282c-7.272,0.057-13.299,6.155-14.846,14.294
		C17.434,16.921,22.632,15.5,28.276,15.5z"/&gt;
	&lt;path id="wh1_1_" fill="#9B9B9B" stroke="#4B4B4B" stroke-linecap="round" stroke-linejoin="round" stroke-miterlimit="10" d="
		M28.278,20.808c5.662,0,11.937,0.811,16.391,2.207c-0.11-2.059-0.274-2.826-0.413-3.72c-4.154-2.379-10.344-3.795-15.98-3.795
		c-5.644,0-11.842,1.421-16,3.807c-0.228,1.197-0.362,2.436-0.388,3.707C16.343,21.618,22.618,20.808,28.278,20.808z"/&gt;
&lt;/g&gt;
&lt;/svg&gt;
</y:Resource>
      <y:Resource id="6" xml:space="preserve">&lt;?xml version="1.0" encoding="UTF-8" standalone="no"?&gt;
&lt;svg
   fill-opacity="1"
   color-rendering="auto"
   color-interpolation="auto"
   text-rendering="auto"
   stroke="black"
   stroke-linecap="square"
   width="91"
   stroke-miterlimit="10"
   shape-rendering="auto"
   stroke-opacity="1"
   fill="black"
   stroke-dasharray="none"
   font-weight="normal"
   stroke-width="1"
   height="91"
   font-family="'Dialog'"
   font-style="normal"
   stroke-linejoin="miter"
   font-size="12px"
   stroke-dashoffset="0"
   image-rendering="auto"
   version="1.1"
   id="svg7"
   sodipodi:docname="unnamed26.svg"
   inkscape:version="1.3.2 (091e20e, 2023-11-25, custom)"
   xmlns:inkscape="http://www.inkscape.org/namespaces/inkscape"
   xmlns:sodipodi="http://sodipodi.sourceforge.net/DTD/sodipodi-0.dtd"
   xmlns="http://www.w3.org/2000/svg"
   xmlns:svg="http://www.w3.org/2000/svg"&gt;
  &lt;sodipodi:namedview
     id="namedview7"
     pagecolor="#ffffff"
     bordercolor="#000000"
     borderopacity="0.25"
     inkscape:showpageshadow="2"
     inkscape:pageopacity="0.0"
     inkscape:pagecheckerboard="0"
     inkscape:deskcolor="#d1d1d1"
     inkscape:zoom="4.9230769"
     inkscape:cx="45.5"
     inkscape:cy="61.648437"
     inkscape:window-width="1080"
     inkscape:window-height="1897"
     inkscape:window-x="-8"
     inkscape:window-y="-8"
     inkscape:window-maximized="1"
     inkscape:current-layer="svg7" /&gt;
  &lt;!--Generated by ySVG 2.6--&gt;
  &lt;defs
     id="genericDefs" /&gt;
  &lt;g
     id="g7"&gt;
    &lt;defs
       id="defs1"&gt;
      &lt;clipPath
         clipPathUnits="userSpaceOnUse"
         id="clipPath1"&gt;
        &lt;path
           d="M0 0 L91 0 L91 91 L0 91 L0 0 Z"
           id="path1" /&gt;
      &lt;/clipPath&gt;
      &lt;clipPath
         clipPathUnits="userSpaceOnUse"
         id="clipPath2"&gt;
        &lt;path
           d="M1139 866 L1230 866 L1230 957 L1139 957 L1139 866 Z"
           id="path2" /&gt;
      &lt;/clipPath&gt;
      &lt;clipPath
         clipPathUnits="userSpaceOnUse"
         id="clipPath3"&gt;
        &lt;path
           d="M-424.7676 -440.3176 L2098.9783 -440.3176 L2098.9783 2146.4736 L-424.7676 2146.4736 L-424.7676 -440.3176 Z"
           id="path3" /&gt;
      &lt;/clipPath&gt;
    &lt;/defs&gt;
    &lt;g
       fill="white"
       text-rendering="geometricPrecision"
       shape-rendering="geometricPrecision"
       transform="translate(-1139,-866)"
       stroke="white"
       id="g3"&gt;
      &lt;rect
         x="1139"
         width="91"
         height="91"
         y="866"
         clip-path="url(#clipPath2)"
         stroke="none"
         id="rect3" /&gt;
    &lt;/g&gt;
    &lt;g
       text-rendering="geometricPrecision"
       shape-rendering="geometricPrecision"
       transform="matrix(0.0361,0,0,0.0352,15.3161,15.4898)"
       id="g6"&gt;
      &lt;g
         clip-path="url(#clipPath3)"
         id="g5"&gt;
        &lt;svg
           opacity="1"
           writing-mode="lr-tb"
           stop-color="rgb(0, 0, 0)"
           shape-rendering="auto"
           glyph-orientation-horizontal="0deg"
           color-profile="auto"
           lighting-color="rgb(255, 255, 255)"
           color="rgb(0, 0, 0)"
           font-weight="400"
           alignment-baseline="auto"
           font-style="normal"
           version="1.0"
           color-interpolation-filters="linearrgb"
           text-anchor="start"
           stroke-linecap="butt"
           color-interpolation="srgb"
           font-variant="normal"
           word-spacing="normal"
           fill-opacity="1"
           text-rendering="auto"
           clip-path="none"
           text-decoration="none"
           letter-spacing="normal"
           viewBox="0 0 1249.000000 1280.000000"
           glyph-orientation-vertical="auto"
           display="inline"
           font-size-adjust="none"
           fill="rgb(0, 0, 0)"
           overflow="hidden"
           font-stretch="normal"
           stroke-dasharray="none"
           stroke-miterlimit="4"
           stop-opacity="1"
           color-rendering="auto"
           font-size="12"
           mask="none"
           direction="ltr"
           baseline-shift="baseline"
           pointer-events="visiblepainted"
           enable-background="accumulate"
           fill-rule="nonzero"
           image-rendering="auto"
           stroke-dashoffset="0"
           width="1249.000000pt"
           marker-end="none"
           clip="auto"
           cursor="auto"
           stroke="none"
           filter="none"
           visibility="visible"
           kerning="auto"
           stroke-width="1"
           font-family="&amp;quot;Arial&amp;quot;,&amp;quot;Helvetica&amp;quot;,sans-serif"
           preserveAspectRatio="xMidYMid meet"
           flood-opacity="1"
           clip-rule="nonzero"
           src="none"
           height="1280.000000pt"
           unicode-bidi="normal"
           stroke-linejoin="miter"
           stroke-opacity="1"
           flood-color="rgb(0, 0, 0)"
           dominant-baseline="auto"
           marker-start="none"
           marker-mid="none"
           id="svg4"&gt;
          &lt;metadata
             id="metadata3"&gt;
Created by potrace 1.15, written by Peter Selinger 2001-2017
&lt;/metadata&gt;
          &lt;g
             fill="#809966"
             transform="translate(0.000000,1280.000000) scale(0.100000,-0.100000)"
             stroke="none"
             id="g4"&gt;
            &lt;path
               d="M8130 12790 c-789 -60 -1484 -324 -2070 -786 -729 -575 -1154 -1349 -1262 -2299 -18 -164 -15 -570 6 -745 44 -366 127 -696 258 -1018 27 -68 48 -125 46 -126 -1 -2 -198 -37 -437 -79 -375 -65 -442 -80 -496 -106 -81 -40 -164 -124 -206 -209 -32 -63 -34 -73 -34 -172 0 -99 2 -109 33 -172 30 -61 55 -88 295 -309 144 -132 262 -247 262 -253 0 -7 -138 -168 -306 -357 -2811 -3166 -4029 -4541 -4039 -4559 -32 -59 -125 -433 -157 -625 -26 -161 -24 -438 4 -561 41 -176 138 -374 197 -402 30 -15 10 -17 696 64 162 19 527 57 811 84 284 27 523 52 532 56 24 9 578 595 588 622 5 13 9 184 9 381 l0 358 68 7 c37 3 292 22 567 42 275 20 511 41 525 48 29 13 424 457 447 502 14 29 13 72 -16 535 -17 277 -33 514 -35 527 -2 16 2 23 18 26 11 3 266 21 566 41 699 47 659 42 692 76 20 19 28 38 28 61 0 18 -11 227 -25 463 -14 237 -25 435 -25 442 0 6 127 163 282 350 154 186 282 339 284 341 1 2 143 -117 316 -265 172 -147 333 -285 358 -306 62 -53 193 -115 265 -126 112 -17 206 12 277 86 70 72 82 115 179 635 50 265 92 485 95 487 2 3 51 -7 109 -22 950 -247 1965 -154 2777 254 541 272 1024 711 1344 1224 280 448 446 933 516 1505 17 138 17 593 0 730 -42 343 -114 631 -232 926 -196 490 -455 900 -806 1275 -699 745 -1614 1214 -2604 1335 -151 18 -541 26 -700 14z m1580 -1724 c336 -60 596 -339 617 -661 26 -403 -304 -744 -718 -745 -78 0 -218 29 -295 61 -348 145 -533 538 -415 881 112 325 463 526 811 464z"
               id="path4"
               style="fill:#aa55aa;fill-opacity:1" /&gt;
          &lt;/g&gt;
        &lt;/svg&gt;
      &lt;/g&gt;
    &lt;/g&gt;
  &lt;/g&gt;
&lt;/svg&gt;
</y:Resource>
    </y:Resources>
  </data>
</graphml>
